[{
        "text": "FlatIcon",
        "children": [{ "id": "flaticon-users", "text": "flaticon-users" }, { "id": "flaticon-list-3", "text": "flaticon-list-3" }, { "id": "flaticon-file-1", "text": "flaticon-file-1" }, { "id": "flaticon-time-3", "text": "flaticon-time-3" }, { "id": "flaticon-profile-1", "text": "flaticon-profile-1" }, { "id": "flaticon-time-2", "text": "flaticon-time-2" }, { "id": "flaticon-list-2", "text": "flaticon-list-2" }, { "id": "flaticon-multimedia-2", "text": "flaticon-multimedia-2" }, { "id": "flaticon-interface-9", "text": "flaticon-interface-9" }, { "id": "flaticon-file", "text": "flaticon-file" }, { "id": "flaticon-background", "text": "flaticon-background" }, { "id": "flaticon-chat-1", "text": "flaticon-chat-1" }, { "id": "flaticon-graph", "text": "flaticon-graph" }, { "id": "flaticon-pie-chart", "text": "flaticon-pie-chart" }, { "id": "flaticon-bag", "text": "flaticon-bag" }, { "id": "flaticon-warning-2", "text": "flaticon-warning-2" }, { "id": "flaticon-visible", "text": "flaticon-visible" }, { "id": "flaticon-line-graph", "text": "flaticon-line-graph" }, { "id": "flaticon-diagram", "text": "flaticon-diagram" }, { "id": "flaticon-statistics", "text": "flaticon-statistics" }, { "id": "flaticon-paper-plane", "text": "flaticon-paper-plane" }, { "id": "flaticon-cogwheel-2", "text": "flaticon-cogwheel-2" }, { "id": "flaticon-lifebuoy", "text": "flaticon-lifebuoy" }, { "id": "flaticon-settings", "text": "flaticon-settings" }, { "id": "flaticon-menu-button", "text": "flaticon-menu-button" }, { "id": "flaticon-user", "text": "flaticon-user" }, { "id": "flaticon-apps", "text": "flaticon-apps" }, { "id": "flaticon-clock-1", "text": "flaticon-clock-1" }, { "id": "flaticon-close", "text": "flaticon-close" }, { "id": "flaticon-pin", "text": "flaticon-pin" }, { "id": "flaticon-circle", "text": "flaticon-circle" }, { "id": "flaticon-interface-8", "text": "flaticon-interface-8" }, { "id": "flaticon-technology-1", "text": "flaticon-technology-1" }, { "id": "flaticon-danger", "text": "flaticon-danger" }, { "id": "flaticon-exclamation-square", "text": "flaticon-exclamation-square" }, { "id": "flaticon-cancel", "text": "flaticon-cancel" }, { "id": "flaticon-calendar-2", "text": "flaticon-calendar-2" }, { "id": "flaticon-warning-sign", "text": "flaticon-warning-sign" }, { "id": "flaticon-more", "text": "flaticon-more" }, { "id": "flaticon-exclamation-2", "text": "flaticon-exclamation-2" }, { "id": "flaticon-cogwheel-1", "text": "flaticon-cogwheel-1" }, { "id": "flaticon-book", "text": "flaticon-book" }, { "id": "flaticon-squares-4", "text": "flaticon-squares-4" }, { "id": "flaticon-clock", "text": "flaticon-clock" }, { "id": "flaticon-graphic-2", "text": "flaticon-graphic-2" }, { "id": "flaticon-symbol", "text": "flaticon-symbol" }, { "id": "flaticon-tool-1", "text": "flaticon-tool-1" }, { "id": "flaticon-laptop", "text": "flaticon-laptop" }, { "id": "flaticon-event-calendar-symbol", "text": "flaticon-event-calendar-symbol" }, { "id": "flaticon-logout", "text": "flaticon-logout" }, { "id": "flaticon-refresh", "text": "flaticon-refresh" }, { "id": "flaticon-questions-circular-button", "text": "flaticon-questions-circular-button" }, { "id": "flaticon-search-magnifier-interface-symbol", "text": "flaticon-search-magnifier-interface-symbol" }, { "id": "flaticon-search-1", "text": "flaticon-search-1" }, { "id": "flaticon-more-v2", "text": "flaticon-more-v2" }, { "id": "flaticon-attachment", "text": "flaticon-attachment" }, { "id": "flaticon-speech-bubble-1", "text": "flaticon-speech-bubble-1" }, { "id": "flaticon-open-box", "text": "flaticon-open-box" }, { "id": "flaticon-coins", "text": "flaticon-coins" }, { "id": "flaticon-speech-bubble", "text": "flaticon-speech-bubble" }, { "id": "flaticon-squares-3", "text": "flaticon-squares-3" }, { "id": "flaticon-computer", "text": "flaticon-computer" }, { "id": "flaticon-alert-2", "text": "flaticon-alert-2" }, { "id": "flaticon-alert-off", "text": "flaticon-alert-off" }, { "id": "flaticon-map", "text": "flaticon-map" }, { "id": "flaticon-interface-7", "text": "flaticon-interface-7" }, { "id": "flaticon-graphic-1", "text": "flaticon-graphic-1" }, { "id": "flaticon-cogwheel", "text": "flaticon-cogwheel" }, { "id": "flaticon-alert-1", "text": "flaticon-alert-1" }, { "id": "flaticon-folder-4", "text": "flaticon-folder-4" }, { "id": "flaticon-interface-6", "text": "flaticon-interface-6" }, { "id": "flaticon-interface-5", "text": "flaticon-interface-5" }, { "id": "flaticon-calendar-1", "text": "flaticon-calendar-1" }, { "id": "flaticon-time-1", "text": "flaticon-time-1" }, { "id": "flaticon-signs-2", "text": "flaticon-signs-2" }, { "id": "flaticon-calendar", "text": "flaticon-calendar" }, { "id": "flaticon-search", "text": "flaticon-search" }, { "id": "flaticon-infinity", "text": "flaticon-infinity" }, { "id": "flaticon-list-1", "text": "flaticon-list-1" }, { "id": "flaticon-bell", "text": "flaticon-bell" }, { "id": "flaticon-delete", "text": "flaticon-delete" }, { "id": "flaticon-squares-2", "text": "flaticon-squares-2" }, { "id": "flaticon-clipboard", "text": "flaticon-clipboard" }, { "id": "flaticon-shapes", "text": "flaticon-shapes" }, { "id": "flaticon-comment", "text": "flaticon-comment" }, { "id": "flaticon-squares-1", "text": "flaticon-squares-1" }, { "id": "flaticon-mark", "text": "flaticon-mark" }, { "id": "flaticon-signs-1", "text": "flaticon-signs-1" }, { "id": "flaticon-squares", "text": "flaticon-squares" }, { "id": "flaticon-business", "text": "flaticon-business" }, { "id": "flaticon-car", "text": "flaticon-car" }, { "id": "flaticon-light", "text": "flaticon-light" }, { "id": "flaticon-information", "text": "flaticon-information" }, { "id": "flaticon-dashboard", "text": "flaticon-dashboard" }, { "id": "flaticon-edit-1", "text": "flaticon-edit-1" }, { "id": "flaticon-location", "text": "flaticon-location" }, { "id": "flaticon-technology", "text": "flaticon-technology" }, { "id": "flaticon-exclamation-1", "text": "flaticon-exclamation-1" }, { "id": "flaticon-tea-cup", "text": "flaticon-tea-cup" }, { "id": "flaticon-notes", "text": "flaticon-notes" }, { "id": "flaticon-analytics", "text": "flaticon-analytics" }, { "id": "flaticon-transport", "text": "flaticon-transport" }, { "id": "flaticon-truck", "text": "flaticon-truck" }, { "id": "flaticon-user-settings", "text": "flaticon-user-settings" }, { "id": "flaticon-user-add", "text": "flaticon-user-add" }, { "id": "flaticon-user-ok", "text": "flaticon-user-ok" }, { "id": "flaticon-internet", "text": "flaticon-internet" }, { "id": "flaticon-alert", "text": "flaticon-alert" }, { "id": "flaticon-alarm", "text": "flaticon-alarm" }, { "id": "flaticon-grid-menu", "text": "flaticon-grid-menu" }, { "id": "flaticon-up-arrow-1", "text": "flaticon-up-arrow-1" }, { "id": "flaticon-more-v3", "text": "flaticon-more-v3" }, { "id": "flaticon-lock-1", "text": "flaticon-lock-1" }, { "id": "flaticon-profile", "text": "flaticon-profile" }, { "id": "flaticon-map-location", "text": "flaticon-map-location" }, { "id": "flaticon-placeholder-2", "text": "flaticon-placeholder-2" }, { "id": "flaticon-route", "text": "flaticon-route" }, { "id": "flaticon-more-v4", "text": "flaticon-more-v4" }, { "id": "flaticon-lock", "text": "flaticon-lock" }, { "id": "flaticon-multimedia-1", "text": "flaticon-multimedia-1" }, { "id": "flaticon-add", "text": "flaticon-add" }, { "id": "flaticon-more-v5", "text": "flaticon-more-v5" }, { "id": "flaticon-more-v6", "text": "flaticon-more-v6" }, { "id": "flaticon-grid-menu-v2", "text": "flaticon-grid-menu-v2" }, { "id": "flaticon-suitcase", "text": "flaticon-suitcase" }, { "id": "flaticon-app", "text": "flaticon-app" }, { "id": "flaticon-interface-4", "text": "flaticon-interface-4" }, { "id": "flaticon-time", "text": "flaticon-time" }, { "id": "flaticon-list", "text": "flaticon-list" }, { "id": "flaticon-music-2", "text": "flaticon-music-2" }, { "id": "flaticon-tool", "text": "flaticon-tool" }, { "id": "flaticon-security", "text": "flaticon-security" }, { "id": "flaticon-interface-3", "text": "flaticon-interface-3" }, { "id": "flaticon-interface-2", "text": "flaticon-interface-2" }, { "id": "flaticon-interface-1", "text": "flaticon-interface-1" }, { "id": "flaticon-layers", "text": "flaticon-layers" }, { "id": "flaticon-placeholder-1", "text": "flaticon-placeholder-1" }, { "id": "flaticon-placeholder", "text": "flaticon-placeholder" }, { "id": "flaticon-web", "text": "flaticon-web" }, { "id": "flaticon-multimedia", "text": "flaticon-multimedia" }, { "id": "flaticon-tabs", "text": "flaticon-tabs" }, { "id": "flaticon-signs", "text": "flaticon-signs" }, { "id": "flaticon-interface", "text": "flaticon-interface" }, { "id": "flaticon-network", "text": "flaticon-network" }, { "id": "flaticon-share", "text": "flaticon-share" }, { "id": "flaticon-info", "text": "flaticon-info" }, { "id": "flaticon-exclamation", "text": "flaticon-exclamation" }, { "id": "flaticon-music-1", "text": "flaticon-music-1" }, { "id": "flaticon-medical", "text": "flaticon-medical" }, { "id": "flaticon-imac", "text": "flaticon-imac" }, { "id": "flaticon-cart", "text": "flaticon-cart" }, { "id": "flaticon-download", "text": "flaticon-download" }, { "id": "flaticon-edit", "text": "flaticon-edit" }, { "id": "flaticon-graphic", "text": "flaticon-graphic" }, { "id": "flaticon-browser", "text": "flaticon-browser" }, { "id": "flaticon-up-arrow", "text": "flaticon-up-arrow" }, { "id": "flaticon-folder-3", "text": "flaticon-folder-3" }, { "id": "flaticon-folder-2", "text": "flaticon-folder-2" }, { "id": "flaticon-folder-1", "text": "flaticon-folder-1" }, { "id": "flaticon-folder", "text": "flaticon-folder" }, { "id": "flaticon-music", "text": "flaticon-music" }, { "id": "flaticon-chat", "text": "flaticon-chat" }]
    },
    {
        "text": "FontAwesome",
        "children": [{ "id": "fa fa-glass", "text": "fa-glass" }, { "id": "fa fa-music", "text": "fa-music" }, { "id": "fa fa-search", "text": "fa-search" }, { "id": "fa fa-envelope-o", "text": "fa-envelope-o" }, { "id": "fa fa-heart", "text": "fa-heart" }, { "id": "fa fa-star", "text": "fa-star" }, { "id": "fa fa-star-o", "text": "fa-star-o" }, { "id": "fa fa-user", "text": "fa-user" }, { "id": "fa fa-film", "text": "fa-film" }, { "id": "fa fa-th-large", "text": "fa-th-large" }, { "id": "fa fa-th", "text": "fa-th" }, { "id": "fa fa-th-list", "text": "fa-th-list" }, { "id": "fa fa-check", "text": "fa-check" }, { "id": "fa fa-remove", "text": "fa-remove" }, { "id": "fa fa-close", "text": "fa-close" }, { "id": "fa fa-times", "text": "fa-times" }, { "id": "fa fa-search-plus", "text": "fa-search-plus" }, { "id": "fa fa-search-minus", "text": "fa-search-minus" }, { "id": "fa fa-power-off", "text": "fa-power-off" }, { "id": "fa fa-signal", "text": "fa-signal" }, { "id": "fa fa-gear", "text": "fa-gear" }, { "id": "fa fa-cog", "text": "fa-cog" }, { "id": "fa fa-trash-o", "text": "fa-trash-o" }, { "id": "fa fa-home", "text": "fa-home" }, { "id": "fa fa-file-o", "text": "fa-file-o" }, { "id": "fa fa-clock-o", "text": "fa-clock-o" }, { "id": "fa fa-road", "text": "fa-road" }, { "id": "fa fa-download", "text": "fa-download" }, { "id": "fa fa-arrow-circle-o-down", "text": "fa-arrow-circle-o-down" }, { "id": "fa fa-arrow-circle-o-up", "text": "fa-arrow-circle-o-up" }, { "id": "fa fa-inbox", "text": "fa-inbox" }, { "id": "fa fa-play-circle-o", "text": "fa-play-circle-o" }, { "id": "fa fa-rotate-right", "text": "fa-rotate-right" }, { "id": "fa fa-repeat", "text": "fa-repeat" }, { "id": "fa fa-refresh", "text": "fa-refresh" }, { "id": "fa fa-list-alt", "text": "fa-list-alt" }, { "id": "fa fa-lock", "text": "fa-lock" }, { "id": "fa fa-flag", "text": "fa-flag" }, { "id": "fa fa-headphones", "text": "fa-headphones" }, { "id": "fa fa-volume-off", "text": "fa-volume-off" }, { "id": "fa fa-volume-down", "text": "fa-volume-down" }, { "id": "fa fa-volume-up", "text": "fa-volume-up" }, { "id": "fa fa-qrcode", "text": "fa-qrcode" }, { "id": "fa fa-barcode", "text": "fa-barcode" }, { "id": "fa fa-tag", "text": "fa-tag" }, { "id": "fa fa-tags", "text": "fa-tags" }, { "id": "fa fa-book", "text": "fa-book" }, { "id": "fa fa-bookmark", "text": "fa-bookmark" }, { "id": "fa fa-print", "text": "fa-print" }, { "id": "fa fa-camera", "text": "fa-camera" }, { "id": "fa fa-font", "text": "fa-font" }, { "id": "fa fa-bold", "text": "fa-bold" }, { "id": "fa fa-italic", "text": "fa-italic" }, { "id": "fa fa-text-height", "text": "fa-text-height" }, { "id": "fa fa-text-width", "text": "fa-text-width" }, { "id": "fa fa-align-left", "text": "fa-align-left" }, { "id": "fa fa-align-center", "text": "fa-align-center" }, { "id": "fa fa-align-right", "text": "fa-align-right" }, { "id": "fa fa-align-justify", "text": "fa-align-justify" }, { "id": "fa fa-list", "text": "fa-list" }, { "id": "fa fa-dedent", "text": "fa-dedent" }, { "id": "fa fa-outdent", "text": "fa-outdent" }, { "id": "fa fa-indent", "text": "fa-indent" }, { "id": "fa fa-video-camera", "text": "fa-video-camera" }, { "id": "fa fa-photo", "text": "fa-photo" }, { "id": "fa fa-image", "text": "fa-image" }, { "id": "fa fa-picture-o", "text": "fa-picture-o" }, { "id": "fa fa-pencil", "text": "fa-pencil" }, { "id": "fa fa-map-marker", "text": "fa-map-marker" }, { "id": "fa fa-adjust", "text": "fa-adjust" }, { "id": "fa fa-tint", "text": "fa-tint" }, { "id": "fa fa-edit", "text": "fa-edit" }, { "id": "fa fa-pencil-square-o", "text": "fa-pencil-square-o" }, { "id": "fa fa-share-square-o", "text": "fa-share-square-o" }, { "id": "fa fa-check-square-o", "text": "fa-check-square-o" }, { "id": "fa fa-arrows", "text": "fa-arrows" }, { "id": "fa fa-step-backward", "text": "fa-step-backward" }, { "id": "fa fa-fast-backward", "text": "fa-fast-backward" }, { "id": "fa fa-backward", "text": "fa-backward" }, { "id": "fa fa-play", "text": "fa-play" }, { "id": "fa fa-pause", "text": "fa-pause" }, { "id": "fa fa-stop", "text": "fa-stop" }, { "id": "fa fa-forward", "text": "fa-forward" }, { "id": "fa fa-fast-forward", "text": "fa-fast-forward" }, { "id": "fa fa-step-forward", "text": "fa-step-forward" }, { "id": "fa fa-eject", "text": "fa-eject" }, { "id": "fa fa-chevron-left", "text": "fa-chevron-left" }, { "id": "fa fa-chevron-right", "text": "fa-chevron-right" }, { "id": "fa fa-plus-circle", "text": "fa-plus-circle" }, { "id": "fa fa-minus-circle", "text": "fa-minus-circle" }, { "id": "fa fa-times-circle", "text": "fa-times-circle" }, { "id": "fa fa-check-circle", "text": "fa-check-circle" }, { "id": "fa fa-question-circle", "text": "fa-question-circle" }, { "id": "fa fa-info-circle", "text": "fa-info-circle" }, { "id": "fa fa-crosshairs", "text": "fa-crosshairs" }, { "id": "fa fa-times-circle-o", "text": "fa-times-circle-o" }, { "id": "fa fa-check-circle-o", "text": "fa-check-circle-o" }, { "id": "fa fa-ban", "text": "fa-ban" }, { "id": "fa fa-arrow-left", "text": "fa-arrow-left" }, { "id": "fa fa-arrow-right", "text": "fa-arrow-right" }, { "id": "fa fa-arrow-up", "text": "fa-arrow-up" }, { "id": "fa fa-arrow-down", "text": "fa-arrow-down" }, { "id": "fa fa-mail-forward", "text": "fa-mail-forward" }, { "id": "fa fa-share", "text": "fa-share" }, { "id": "fa fa-expand", "text": "fa-expand" }, { "id": "fa fa-compress", "text": "fa-compress" }, { "id": "fa fa-plus", "text": "fa-plus" }, { "id": "fa fa-minus", "text": "fa-minus" }, { "id": "fa fa-asterisk", "text": "fa-asterisk" }, { "id": "fa fa-exclamation-circle", "text": "fa-exclamation-circle" }, { "id": "fa fa-gift", "text": "fa-gift" }, { "id": "fa fa-leaf", "text": "fa-leaf" }, { "id": "fa fa-fire", "text": "fa-fire" }, { "id": "fa fa-eye", "text": "fa-eye" }, { "id": "fa fa-eye-slash", "text": "fa-eye-slash" }, { "id": "fa fa-warning", "text": "fa-warning" }, { "id": "fa fa-exclamation-triangle", "text": "fa-exclamation-triangle" }, { "id": "fa fa-plane", "text": "fa-plane" }, { "id": "fa fa-calendar", "text": "fa-calendar" }, { "id": "fa fa-random", "text": "fa-random" }, { "id": "fa fa-comment", "text": "fa-comment" }, { "id": "fa fa-magnet", "text": "fa-magnet" }, { "id": "fa fa-chevron-up", "text": "fa-chevron-up" }, { "id": "fa fa-chevron-down", "text": "fa-chevron-down" }, { "id": "fa fa-retweet", "text": "fa-retweet" }, { "id": "fa fa-shopping-cart", "text": "fa-shopping-cart" }, { "id": "fa fa-folder", "text": "fa-folder" }, { "id": "fa fa-folder-open", "text": "fa-folder-open" }, { "id": "fa fa-arrows-v", "text": "fa-arrows-v" }, { "id": "fa fa-arrows-h", "text": "fa-arrows-h" }, { "id": "fa fa-bar-chart-o", "text": "fa-bar-chart-o" }, { "id": "fa fa-bar-chart", "text": "fa-bar-chart" }, { "id": "fa fa-twitter-square", "text": "fa-twitter-square" }, { "id": "fa fa-facebook-square", "text": "fa-facebook-square" }, { "id": "fa fa-camera-retro", "text": "fa-camera-retro" }, { "id": "fa fa-key", "text": "fa-key" }, { "id": "fa fa-gears", "text": "fa-gears" }, { "id": "fa fa-cogs", "text": "fa-cogs" }, { "id": "fa fa-comments", "text": "fa-comments" }, { "id": "fa fa-thumbs-o-up", "text": "fa-thumbs-o-up" }, { "id": "fa fa-thumbs-o-down", "text": "fa-thumbs-o-down" }, { "id": "fa fa-star-half", "text": "fa-star-half" }, { "id": "fa fa-heart-o", "text": "fa-heart-o" }, { "id": "fa fa-sign-out", "text": "fa-sign-out" }, { "id": "fa fa-linkedin-square", "text": "fa-linkedin-square" }, { "id": "fa fa-thumb-tack", "text": "fa-thumb-tack" }, { "id": "fa fa-external-link", "text": "fa-external-link" }, { "id": "fa fa-sign-in", "text": "fa-sign-in" }, { "id": "fa fa-trophy", "text": "fa-trophy" }, { "id": "fa fa-github-square", "text": "fa-github-square" }, { "id": "fa fa-upload", "text": "fa-upload" }, { "id": "fa fa-lemon-o", "text": "fa-lemon-o" }, { "id": "fa fa-phone", "text": "fa-phone" }, { "id": "fa fa-square-o", "text": "fa-square-o" }, { "id": "fa fa-bookmark-o", "text": "fa-bookmark-o" }, { "id": "fa fa-phone-square", "text": "fa-phone-square" }, { "id": "fa fa-twitter", "text": "fa-twitter" }, { "id": "fa fa-facebook-f", "text": "fa-facebook-f" }, { "id": "fa fa-facebook", "text": "fa-facebook" }, { "id": "fa fa-github", "text": "fa-github" }, { "id": "fa fa-unlock", "text": "fa-unlock" }, { "id": "fa fa-credit-card", "text": "fa-credit-card" }, { "id": "fa fa-feed", "text": "fa-feed" }, { "id": "fa fa-rss", "text": "fa-rss" }, { "id": "fa fa-hdd-o", "text": "fa-hdd-o" }, { "id": "fa fa-bullhorn", "text": "fa-bullhorn" }, { "id": "fa fa-bell", "text": "fa-bell" }, { "id": "fa fa-certificate", "text": "fa-certificate" }, { "id": "fa fa-hand-o-right", "text": "fa-hand-o-right" }, { "id": "fa fa-hand-o-left", "text": "fa-hand-o-left" }, { "id": "fa fa-hand-o-up", "text": "fa-hand-o-up" }, { "id": "fa fa-hand-o-down", "text": "fa-hand-o-down" }, { "id": "fa fa-arrow-circle-left", "text": "fa-arrow-circle-left" }, { "id": "fa fa-arrow-circle-right", "text": "fa-arrow-circle-right" }, { "id": "fa fa-arrow-circle-up", "text": "fa-arrow-circle-up" }, { "id": "fa fa-arrow-circle-down", "text": "fa-arrow-circle-down" }, { "id": "fa fa-globe", "text": "fa-globe" }, { "id": "fa fa-wrench", "text": "fa-wrench" }, { "id": "fa fa-tasks", "text": "fa-tasks" }, { "id": "fa fa-filter", "text": "fa-filter" }, { "id": "fa fa-briefcase", "text": "fa-briefcase" }, { "id": "fa fa-arrows-alt", "text": "fa-arrows-alt" }, { "id": "fa fa-group", "text": "fa-group" }, { "id": "fa fa-users", "text": "fa-users" }, { "id": "fa fa-chain", "text": "fa-chain" }, { "id": "fa fa-link", "text": "fa-link" }, { "id": "fa fa-cloud", "text": "fa-cloud" }, { "id": "fa fa-flask", "text": "fa-flask" }, { "id": "fa fa-cut", "text": "fa-cut" }, { "id": "fa fa-scissors", "text": "fa-scissors" }, { "id": "fa fa-copy", "text": "fa-copy" }, { "id": "fa fa-files-o", "text": "fa-files-o" }, { "id": "fa fa-paperclip", "text": "fa-paperclip" }, { "id": "fa fa-save", "text": "fa-save" }, { "id": "fa fa-floppy-o", "text": "fa-floppy-o" }, { "id": "fa fa-square", "text": "fa-square" }, { "id": "fa fa-navicon", "text": "fa-navicon" }, { "id": "fa fa-reorder", "text": "fa-reorder" }, { "id": "fa fa-bars", "text": "fa-bars" }, { "id": "fa fa-list-ul", "text": "fa-list-ul" }, { "id": "fa fa-list-ol", "text": "fa-list-ol" }, { "id": "fa fa-strikethrough", "text": "fa-strikethrough" }, { "id": "fa fa-underline", "text": "fa-underline" }, { "id": "fa fa-table", "text": "fa-table" }, { "id": "fa fa-magic", "text": "fa-magic" }, { "id": "fa fa-truck", "text": "fa-truck" }, { "id": "fa fa-pinterest", "text": "fa-pinterest" }, { "id": "fa fa-pinterest-square", "text": "fa-pinterest-square" }, { "id": "fa fa-google-plus-square", "text": "fa-google-plus-square" }, { "id": "fa fa-google-plus", "text": "fa-google-plus" }, { "id": "fa fa-money", "text": "fa-money" }, { "id": "fa fa-caret-down", "text": "fa-caret-down" }, { "id": "fa fa-caret-up", "text": "fa-caret-up" }, { "id": "fa fa-caret-left", "text": "fa-caret-left" }, { "id": "fa fa-caret-right", "text": "fa-caret-right" }, { "id": "fa fa-columns", "text": "fa-columns" }, { "id": "fa fa-unsorted", "text": "fa-unsorted" }, { "id": "fa fa-sort", "text": "fa-sort" }, { "id": "fa fa-sort-down", "text": "fa-sort-down" }, { "id": "fa fa-sort-desc", "text": "fa-sort-desc" }, { "id": "fa fa-sort-up", "text": "fa-sort-up" }, { "id": "fa fa-sort-asc", "text": "fa-sort-asc" }, { "id": "fa fa-envelope", "text": "fa-envelope" }, { "id": "fa fa-linkedin", "text": "fa-linkedin" }, { "id": "fa fa-rotate-left", "text": "fa-rotate-left" }, { "id": "fa fa-undo", "text": "fa-undo" }, { "id": "fa fa-legal", "text": "fa-legal" }, { "id": "fa fa-gavel", "text": "fa-gavel" }, { "id": "fa fa-dashboard", "text": "fa-dashboard" }, { "id": "fa fa-tachometer", "text": "fa-tachometer" }, { "id": "fa fa-comment-o", "text": "fa-comment-o" }, { "id": "fa fa-comments-o", "text": "fa-comments-o" }, { "id": "fa fa-flash", "text": "fa-flash" }, { "id": "fa fa-bolt", "text": "fa-bolt" }, { "id": "fa fa-sitemap", "text": "fa-sitemap" }, { "id": "fa fa-umbrella", "text": "fa-umbrella" }, { "id": "fa fa-paste", "text": "fa-paste" }, { "id": "fa fa-clipboard", "text": "fa-clipboard" }, { "id": "fa fa-lightbulb-o", "text": "fa-lightbulb-o" }, { "id": "fa fa-exchange", "text": "fa-exchange" }, { "id": "fa fa-cloud-download", "text": "fa-cloud-download" }, { "id": "fa fa-cloud-upload", "text": "fa-cloud-upload" }, { "id": "fa fa-user-md", "text": "fa-user-md" }, { "id": "fa fa-stethoscope", "text": "fa-stethoscope" }, { "id": "fa fa-suitcase", "text": "fa-suitcase" }, { "id": "fa fa-bell-o", "text": "fa-bell-o" }, { "id": "fa fa-coffee", "text": "fa-coffee" }, { "id": "fa fa-cutlery", "text": "fa-cutlery" }, { "id": "fa fa-file-text-o", "text": "fa-file-text-o" }, { "id": "fa fa-building-o", "text": "fa-building-o" }, { "id": "fa fa-hospital-o", "text": "fa-hospital-o" }, { "id": "fa fa-ambulance", "text": "fa-ambulance" }, { "id": "fa fa-medkit", "text": "fa-medkit" }, { "id": "fa fa-fighter-jet", "text": "fa-fighter-jet" }, { "id": "fa fa-beer", "text": "fa-beer" }, { "id": "fa fa-h-square", "text": "fa-h-square" }, { "id": "fa fa-plus-square", "text": "fa-plus-square" }, { "id": "fa fa-angle-double-left", "text": "fa-angle-double-left" }, { "id": "fa fa-angle-double-right", "text": "fa-angle-double-right" }, { "id": "fa fa-angle-double-up", "text": "fa-angle-double-up" }, { "id": "fa fa-angle-double-down", "text": "fa-angle-double-down" }, { "id": "fa fa-angle-left", "text": "fa-angle-left" }, { "id": "fa fa-angle-right", "text": "fa-angle-right" }, { "id": "fa fa-angle-up", "text": "fa-angle-up" }, { "id": "fa fa-angle-down", "text": "fa-angle-down" }, { "id": "fa fa-desktop", "text": "fa-desktop" }, { "id": "fa fa-laptop", "text": "fa-laptop" }, { "id": "fa fa-tablet", "text": "fa-tablet" }, { "id": "fa fa-mobile-phone", "text": "fa-mobile-phone" }, { "id": "fa fa-mobile", "text": "fa-mobile" }, { "id": "fa fa-circle-o", "text": "fa-circle-o" }, { "id": "fa fa-quote-left", "text": "fa-quote-left" }, { "id": "fa fa-quote-right", "text": "fa-quote-right" }, { "id": "fa fa-spinner", "text": "fa-spinner" }, { "id": "fa fa-circle", "text": "fa-circle" }, { "id": "fa fa-mail-reply", "text": "fa-mail-reply" }, { "id": "fa fa-reply", "text": "fa-reply" }, { "id": "fa fa-github-alt", "text": "fa-github-alt" }, { "id": "fa fa-folder-o", "text": "fa-folder-o" }, { "id": "fa fa-folder-open-o", "text": "fa-folder-open-o" }, { "id": "fa fa-smile-o", "text": "fa-smile-o" }, { "id": "fa fa-frown-o", "text": "fa-frown-o" }, { "id": "fa fa-meh-o", "text": "fa-meh-o" }, { "id": "fa fa-gamepad", "text": "fa-gamepad" }, { "id": "fa fa-keyboard-o", "text": "fa-keyboard-o" }, { "id": "fa fa-flag-o", "text": "fa-flag-o" }, { "id": "fa fa-flag-checkered", "text": "fa-flag-checkered" }, { "id": "fa fa-terminal", "text": "fa-terminal" }, { "id": "fa fa-code", "text": "fa-code" }, { "id": "fa fa-mail-reply-all", "text": "fa-mail-reply-all" }, { "id": "fa fa-reply-all", "text": "fa-reply-all" }, { "id": "fa fa-star-half-empty", "text": "fa-star-half-empty" }, { "id": "fa fa-star-half-full", "text": "fa-star-half-full" }, { "id": "fa fa-star-half-o", "text": "fa-star-half-o" }, { "id": "fa fa-location-arrow", "text": "fa-location-arrow" }, { "id": "fa fa-crop", "text": "fa-crop" }, { "id": "fa fa-code-fork", "text": "fa-code-fork" }, { "id": "fa fa-unlink", "text": "fa-unlink" }, { "id": "fa fa-chain-broken", "text": "fa-chain-broken" }, { "id": "fa fa-question", "text": "fa-question" }, { "id": "fa fa-info", "text": "fa-info" }, { "id": "fa fa-exclamation", "text": "fa-exclamation" }, { "id": "fa fa-superscript", "text": "fa-superscript" }, { "id": "fa fa-subscript", "text": "fa-subscript" }, { "id": "fa fa-eraser", "text": "fa-eraser" }, { "id": "fa fa-puzzle-piece", "text": "fa-puzzle-piece" }, { "id": "fa fa-microphone", "text": "fa-microphone" }, { "id": "fa fa-microphone-slash", "text": "fa-microphone-slash" }, { "id": "fa fa-shield", "text": "fa-shield" }, { "id": "fa fa-calendar-o", "text": "fa-calendar-o" }, { "id": "fa fa-fire-extinguisher", "text": "fa-fire-extinguisher" }, { "id": "fa fa-rocket", "text": "fa-rocket" }, { "id": "fa fa-maxcdn", "text": "fa-maxcdn" }, { "id": "fa fa-chevron-circle-left", "text": "fa-chevron-circle-left" }, { "id": "fa fa-chevron-circle-right", "text": "fa-chevron-circle-right" }, { "id": "fa fa-chevron-circle-up", "text": "fa-chevron-circle-up" }, { "id": "fa fa-chevron-circle-down", "text": "fa-chevron-circle-down" }, { "id": "fa fa-html5", "text": "fa-html5" }, { "id": "fa fa-css3", "text": "fa-css3" }, { "id": "fa fa-anchor", "text": "fa-anchor" }, { "id": "fa fa-unlock-alt", "text": "fa-unlock-alt" }, { "id": "fa fa-bullseye", "text": "fa-bullseye" }, { "id": "fa fa-ellipsis-h", "text": "fa-ellipsis-h" }, { "id": "fa fa-ellipsis-v", "text": "fa-ellipsis-v" }, { "id": "fa fa-rss-square", "text": "fa-rss-square" }, { "id": "fa fa-play-circle", "text": "fa-play-circle" }, { "id": "fa fa-ticket", "text": "fa-ticket" }, { "id": "fa fa-minus-square", "text": "fa-minus-square" }, { "id": "fa fa-minus-square-o", "text": "fa-minus-square-o" }, { "id": "fa fa-level-up", "text": "fa-level-up" }, { "id": "fa fa-level-down", "text": "fa-level-down" }, { "id": "fa fa-check-square", "text": "fa-check-square" }, { "id": "fa fa-pencil-square", "text": "fa-pencil-square" }, { "id": "fa fa-external-link-square", "text": "fa-external-link-square" }, { "id": "fa fa-share-square", "text": "fa-share-square" }, { "id": "fa fa-compass", "text": "fa-compass" }, { "id": "fa fa-toggle-down", "text": "fa-toggle-down" }, { "id": "fa fa-caret-square-o-down", "text": "fa-caret-square-o-down" }, { "id": "fa fa-toggle-up", "text": "fa-toggle-up" }, { "id": "fa fa-caret-square-o-up", "text": "fa-caret-square-o-up" }, { "id": "fa fa-toggle-right", "text": "fa-toggle-right" }, { "id": "fa fa-caret-square-o-right", "text": "fa-caret-square-o-right" }, { "id": "fa fa-euro", "text": "fa-euro" }, { "id": "fa fa-eur", "text": "fa-eur" }, { "id": "fa fa-gbp", "text": "fa-gbp" }, { "id": "fa fa-dollar", "text": "fa-dollar" }, { "id": "fa fa-usd", "text": "fa-usd" }, { "id": "fa fa-rupee", "text": "fa-rupee" }, { "id": "fa fa-inr", "text": "fa-inr" }, { "id": "fa fa-cny", "text": "fa-cny" }, { "id": "fa fa-rmb", "text": "fa-rmb" }, { "id": "fa fa-yen", "text": "fa-yen" }, { "id": "fa fa-jpy", "text": "fa-jpy" }, { "id": "fa fa-ruble", "text": "fa-ruble" }, { "id": "fa fa-rouble", "text": "fa-rouble" }, { "id": "fa fa-rub", "text": "fa-rub" }, { "id": "fa fa-won", "text": "fa-won" }, { "id": "fa fa-krw", "text": "fa-krw" }, { "id": "fa fa-bitcoin", "text": "fa-bitcoin" }, { "id": "fa fa-btc", "text": "fa-btc" }, { "id": "fa fa-file", "text": "fa-file" }, { "id": "fa fa-file-text", "text": "fa-file-text" }, { "id": "fa fa-sort-alpha-asc", "text": "fa-sort-alpha-asc" }, { "id": "fa fa-sort-alpha-desc", "text": "fa-sort-alpha-desc" }, { "id": "fa fa-sort-amount-asc", "text": "fa-sort-amount-asc" }, { "id": "fa fa-sort-amount-desc", "text": "fa-sort-amount-desc" }, { "id": "fa fa-sort-numeric-asc", "text": "fa-sort-numeric-asc" }, { "id": "fa fa-sort-numeric-desc", "text": "fa-sort-numeric-desc" }, { "id": "fa fa-thumbs-up", "text": "fa-thumbs-up" }, { "id": "fa fa-thumbs-down", "text": "fa-thumbs-down" }, { "id": "fa fa-youtube-square", "text": "fa-youtube-square" }, { "id": "fa fa-youtube", "text": "fa-youtube" }, { "id": "fa fa-xing", "text": "fa-xing" }, { "id": "fa fa-xing-square", "text": "fa-xing-square" }, { "id": "fa fa-youtube-play", "text": "fa-youtube-play" }, { "id": "fa fa-dropbox", "text": "fa-dropbox" }, { "id": "fa fa-stack-overflow", "text": "fa-stack-overflow" }, { "id": "fa fa-instagram", "text": "fa-instagram" }, { "id": "fa fa-flickr", "text": "fa-flickr" }, { "id": "fa fa-adn", "text": "fa-adn" }, { "id": "fa fa-bitbucket", "text": "fa-bitbucket" }, { "id": "fa fa-bitbucket-square", "text": "fa-bitbucket-square" }, { "id": "fa fa-tumblr", "text": "fa-tumblr" }, { "id": "fa fa-tumblr-square", "text": "fa-tumblr-square" }, { "id": "fa fa-long-arrow-down", "text": "fa-long-arrow-down" }, { "id": "fa fa-long-arrow-up", "text": "fa-long-arrow-up" }, { "id": "fa fa-long-arrow-left", "text": "fa-long-arrow-left" }, { "id": "fa fa-long-arrow-right", "text": "fa-long-arrow-right" }, { "id": "fa fa-apple", "text": "fa-apple" }, { "id": "fa fa-windows", "text": "fa-windows" }, { "id": "fa fa-android", "text": "fa-android" }, { "id": "fa fa-linux", "text": "fa-linux" }, { "id": "fa fa-dribbble", "text": "fa-dribbble" }, { "id": "fa fa-skype", "text": "fa-skype" }, { "id": "fa fa-foursquare", "text": "fa-foursquare" }, { "id": "fa fa-trello", "text": "fa-trello" }, { "id": "fa fa-female", "text": "fa-female" }, { "id": "fa fa-male", "text": "fa-male" }, { "id": "fa fa-gittip", "text": "fa-gittip" }, { "id": "fa fa-gratipay", "text": "fa-gratipay" }, { "id": "fa fa-sun-o", "text": "fa-sun-o" }, { "id": "fa fa-moon-o", "text": "fa-moon-o" }, { "id": "fa fa-archive", "text": "fa-archive" }, { "id": "fa fa-bug", "text": "fa-bug" }, { "id": "fa fa-vk", "text": "fa-vk" }, { "id": "fa fa-weibo", "text": "fa-weibo" }, { "id": "fa fa-renren", "text": "fa-renren" }, { "id": "fa fa-pagelines", "text": "fa-pagelines" }, { "id": "fa fa-stack-exchange", "text": "fa-stack-exchange" }, { "id": "fa fa-arrow-circle-o-right", "text": "fa-arrow-circle-o-right" }, { "id": "fa fa-arrow-circle-o-left", "text": "fa-arrow-circle-o-left" }, { "id": "fa fa-toggle-left", "text": "fa-toggle-left" }, { "id": "fa fa-caret-square-o-left", "text": "fa-caret-square-o-left" }, { "id": "fa fa-dot-circle-o", "text": "fa-dot-circle-o" }, { "id": "fa fa-wheelchair", "text": "fa-wheelchair" }, { "id": "fa fa-vimeo-square", "text": "fa-vimeo-square" }, { "id": "fa fa-turkish-lira", "text": "fa-turkish-lira" }, { "id": "fa fa-try", "text": "fa-try" }, { "id": "fa fa-plus-square-o", "text": "fa-plus-square-o" }, { "id": "fa fa-space-shuttle", "text": "fa-space-shuttle" }, { "id": "fa fa-slack", "text": "fa-slack" }, { "id": "fa fa-envelope-square", "text": "fa-envelope-square" }, { "id": "fa fa-wordpress", "text": "fa-wordpress" }, { "id": "fa fa-openid", "text": "fa-openid" }, { "id": "fa fa-institution", "text": "fa-institution" }, { "id": "fa fa-bank", "text": "fa-bank" }, { "id": "fa fa-university", "text": "fa-university" }, { "id": "fa fa-mortar-board", "text": "fa-mortar-board" }, { "id": "fa fa-graduation-cap", "text": "fa-graduation-cap" }, { "id": "fa fa-yahoo", "text": "fa-yahoo" }, { "id": "fa fa-google", "text": "fa-google" }, { "id": "fa fa-reddit", "text": "fa-reddit" }, { "id": "fa fa-reddit-square", "text": "fa-reddit-square" }, { "id": "fa fa-stumbleupon-circle", "text": "fa-stumbleupon-circle" }, { "id": "fa fa-stumbleupon", "text": "fa-stumbleupon" }, { "id": "fa fa-delicious", "text": "fa-delicious" }, { "id": "fa fa-digg", "text": "fa-digg" }, { "id": "fa fa-pied-piper-pp", "text": "fa-pied-piper-pp" }, { "id": "fa fa-pied-piper-alt", "text": "fa-pied-piper-alt" }, { "id": "fa fa-drupal", "text": "fa-drupal" }, { "id": "fa fa-joomla", "text": "fa-joomla" }, { "id": "fa fa-language", "text": "fa-language" }, { "id": "fa fa-fax", "text": "fa-fax" }, { "id": "fa fa-building", "text": "fa-building" }, { "id": "fa fa-child", "text": "fa-child" }, { "id": "fa fa-paw", "text": "fa-paw" }, { "id": "fa fa-spoon", "text": "fa-spoon" }, { "id": "fa fa-cube", "text": "fa-cube" }, { "id": "fa fa-cubes", "text": "fa-cubes" }, { "id": "fa fa-behance", "text": "fa-behance" }, { "id": "fa fa-behance-square", "text": "fa-behance-square" }, { "id": "fa fa-steam", "text": "fa-steam" }, { "id": "fa fa-steam-square", "text": "fa-steam-square" }, { "id": "fa fa-recycle", "text": "fa-recycle" }, { "id": "fa fa-automobile", "text": "fa-automobile" }, { "id": "fa fa-car", "text": "fa-car" }, { "id": "fa fa-cab", "text": "fa-cab" }, { "id": "fa fa-taxi", "text": "fa-taxi" }, { "id": "fa fa-tree", "text": "fa-tree" }, { "id": "fa fa-spotify", "text": "fa-spotify" }, { "id": "fa fa-deviantart", "text": "fa-deviantart" }, { "id": "fa fa-soundcloud", "text": "fa-soundcloud" }, { "id": "fa fa-database", "text": "fa-database" }, { "id": "fa fa-file-pdf-o", "text": "fa-file-pdf-o" }, { "id": "fa fa-file-word-o", "text": "fa-file-word-o" }, { "id": "fa fa-file-excel-o", "text": "fa-file-excel-o" }, { "id": "fa fa-file-powerpoint-o", "text": "fa-file-powerpoint-o" }, { "id": "fa fa-file-photo-o", "text": "fa-file-photo-o" }, { "id": "fa fa-file-picture-o", "text": "fa-file-picture-o" }, { "id": "fa fa-file-image-o", "text": "fa-file-image-o" }, { "id": "fa fa-file-zip-o", "text": "fa-file-zip-o" }, { "id": "fa fa-file-archive-o", "text": "fa-file-archive-o" }, { "id": "fa fa-file-sound-o", "text": "fa-file-sound-o" }, { "id": "fa fa-file-audio-o", "text": "fa-file-audio-o" }, { "id": "fa fa-file-movie-o", "text": "fa-file-movie-o" }, { "id": "fa fa-file-video-o", "text": "fa-file-video-o" }, { "id": "fa fa-file-code-o", "text": "fa-file-code-o" }, { "id": "fa fa-vine", "text": "fa-vine" }, { "id": "fa fa-codepen", "text": "fa-codepen" }, { "id": "fa fa-jsfiddle", "text": "fa-jsfiddle" }, { "id": "fa fa-life-bouy", "text": "fa-life-bouy" }, { "id": "fa fa-life-buoy", "text": "fa-life-buoy" }, { "id": "fa fa-life-saver", "text": "fa-life-saver" }, { "id": "fa fa-support", "text": "fa-support" }, { "id": "fa fa-life-ring", "text": "fa-life-ring" }, { "id": "fa fa-circle-o-notch", "text": "fa-circle-o-notch" }, { "id": "fa fa-ra", "text": "fa-ra" }, { "id": "fa fa-resistance", "text": "fa-resistance" }, { "id": "fa fa-rebel", "text": "fa-rebel" }, { "id": "fa fa-ge", "text": "fa-ge" }, { "id": "fa fa-empire", "text": "fa-empire" }, { "id": "fa fa-git-square", "text": "fa-git-square" }, { "id": "fa fa-git", "text": "fa-git" }, { "id": "fa fa-y-combinator-square", "text": "fa-y-combinator-square" }, { "id": "fa fa-yc-square", "text": "fa-yc-square" }, { "id": "fa fa-hacker-news", "text": "fa-hacker-news" }, { "id": "fa fa-tencent-weibo", "text": "fa-tencent-weibo" }, { "id": "fa fa-qq", "text": "fa-qq" }, { "id": "fa fa-wechat", "text": "fa-wechat" }, { "id": "fa fa-weixin", "text": "fa-weixin" }, { "id": "fa fa-send", "text": "fa-send" }, { "id": "fa fa-paper-plane", "text": "fa-paper-plane" }, { "id": "fa fa-send-o", "text": "fa-send-o" }, { "id": "fa fa-paper-plane-o", "text": "fa-paper-plane-o" }, { "id": "fa fa-history", "text": "fa-history" }, { "id": "fa fa-circle-thin", "text": "fa-circle-thin" }, { "id": "fa fa-header", "text": "fa-header" }, { "id": "fa fa-paragraph", "text": "fa-paragraph" }, { "id": "fa fa-sliders", "text": "fa-sliders" }, { "id": "fa fa-share-alt", "text": "fa-share-alt" }, { "id": "fa fa-share-alt-square", "text": "fa-share-alt-square" }, { "id": "fa fa-bomb", "text": "fa-bomb" }, { "id": "fa fa-soccer-ball-o", "text": "fa-soccer-ball-o" }, { "id": "fa fa-futbol-o", "text": "fa-futbol-o" }, { "id": "fa fa-tty", "text": "fa-tty" }, { "id": "fa fa-binoculars", "text": "fa-binoculars" }, { "id": "fa fa-plug", "text": "fa-plug" }, { "id": "fa fa-slideshare", "text": "fa-slideshare" }, { "id": "fa fa-twitch", "text": "fa-twitch" }, { "id": "fa fa-yelp", "text": "fa-yelp" }, { "id": "fa fa-newspaper-o", "text": "fa-newspaper-o" }, { "id": "fa fa-wifi", "text": "fa-wifi" }, { "id": "fa fa-calculator", "text": "fa-calculator" }, { "id": "fa fa-paypal", "text": "fa-paypal" }, { "id": "fa fa-google-wallet", "text": "fa-google-wallet" }, { "id": "fa fa-cc-visa", "text": "fa-cc-visa" }, { "id": "fa fa-cc-mastercard", "text": "fa-cc-mastercard" }, { "id": "fa fa-cc-discover", "text": "fa-cc-discover" }, { "id": "fa fa-cc-amex", "text": "fa-cc-amex" }, { "id": "fa fa-cc-paypal", "text": "fa-cc-paypal" }, { "id": "fa fa-cc-stripe", "text": "fa-cc-stripe" }, { "id": "fa fa-bell-slash", "text": "fa-bell-slash" }, { "id": "fa fa-bell-slash-o", "text": "fa-bell-slash-o" }, { "id": "fa fa-trash", "text": "fa-trash" }, { "id": "fa fa-copyright", "text": "fa-copyright" }, { "id": "fa fa-at", "text": "fa-at" }, { "id": "fa fa-eyedropper", "text": "fa-eyedropper" }, { "id": "fa fa-paint-brush", "text": "fa-paint-brush" }, { "id": "fa fa-birthday-cake", "text": "fa-birthday-cake" }, { "id": "fa fa-area-chart", "text": "fa-area-chart" }, { "id": "fa fa-pie-chart", "text": "fa-pie-chart" }, { "id": "fa fa-line-chart", "text": "fa-line-chart" }, { "id": "fa fa-lastfm", "text": "fa-lastfm" }, { "id": "fa fa-lastfm-square", "text": "fa-lastfm-square" }, { "id": "fa fa-toggle-off", "text": "fa-toggle-off" }, { "id": "fa fa-toggle-on", "text": "fa-toggle-on" }, { "id": "fa fa-bicycle", "text": "fa-bicycle" }, { "id": "fa fa-bus", "text": "fa-bus" }, { "id": "fa fa-ioxhost", "text": "fa-ioxhost" }, { "id": "fa fa-angellist", "text": "fa-angellist" }, { "id": "fa fa-cc", "text": "fa-cc" }, { "id": "fa fa-shekel", "text": "fa-shekel" }, { "id": "fa fa-sheqel", "text": "fa-sheqel" }, { "id": "fa fa-ils", "text": "fa-ils" }, { "id": "fa fa-meanpath", "text": "fa-meanpath" }, { "id": "fa fa-buysellads", "text": "fa-buysellads" }, { "id": "fa fa-connectdevelop", "text": "fa-connectdevelop" }, { "id": "fa fa-dashcube", "text": "fa-dashcube" }, { "id": "fa fa-forumbee", "text": "fa-forumbee" }, { "id": "fa fa-leanpub", "text": "fa-leanpub" }, { "id": "fa fa-sellsy", "text": "fa-sellsy" }, { "id": "fa fa-shirtsinbulk", "text": "fa-shirtsinbulk" }, { "id": "fa fa-simplybuilt", "text": "fa-simplybuilt" }, { "id": "fa fa-skyatlas", "text": "fa-skyatlas" }, { "id": "fa fa-cart-plus", "text": "fa-cart-plus" }, { "id": "fa fa-cart-arrow-down", "text": "fa-cart-arrow-down" }, { "id": "fa fa-diamond", "text": "fa-diamond" }, { "id": "fa fa-ship", "text": "fa-ship" }, { "id": "fa fa-user-secret", "text": "fa-user-secret" }, { "id": "fa fa-motorcycle", "text": "fa-motorcycle" }, { "id": "fa fa-street-view", "text": "fa-street-view" }, { "id": "fa fa-heartbeat", "text": "fa-heartbeat" }, { "id": "fa fa-venus", "text": "fa-venus" }, { "id": "fa fa-mars", "text": "fa-mars" }, { "id": "fa fa-mercury", "text": "fa-mercury" }, { "id": "fa fa-intersex", "text": "fa-intersex" }, { "id": "fa fa-transgender", "text": "fa-transgender" }, { "id": "fa fa-transgender-alt", "text": "fa-transgender-alt" }, { "id": "fa fa-venus-double", "text": "fa-venus-double" }, { "id": "fa fa-mars-double", "text": "fa-mars-double" }, { "id": "fa fa-venus-mars", "text": "fa-venus-mars" }, { "id": "fa fa-mars-stroke", "text": "fa-mars-stroke" }, { "id": "fa fa-mars-stroke-v", "text": "fa-mars-stroke-v" }, { "id": "fa fa-mars-stroke-h", "text": "fa-mars-stroke-h" }, { "id": "fa fa-neuter", "text": "fa-neuter" }, { "id": "fa fa-genderless", "text": "fa-genderless" }, { "id": "fa fa-facebook-official", "text": "fa-facebook-official" }, { "id": "fa fa-pinterest-p", "text": "fa-pinterest-p" }, { "id": "fa fa-whatsapp", "text": "fa-whatsapp" }, { "id": "fa fa-server", "text": "fa-server" }, { "id": "fa fa-user-plus", "text": "fa-user-plus" }, { "id": "fa fa-user-times", "text": "fa-user-times" }, { "id": "fa fa-hotel", "text": "fa-hotel" }, { "id": "fa fa-bed", "text": "fa-bed" }, { "id": "fa fa-viacoin", "text": "fa-viacoin" }, { "id": "fa fa-train", "text": "fa-train" }, { "id": "fa fa-subway", "text": "fa-subway" }, { "id": "fa fa-medium", "text": "fa-medium" }, { "id": "fa fa-yc", "text": "fa-yc" }, { "id": "fa fa-y-combinator", "text": "fa-y-combinator" }, { "id": "fa fa-optin-monster", "text": "fa-optin-monster" }, { "id": "fa fa-opencart", "text": "fa-opencart" }, { "id": "fa fa-expeditedssl", "text": "fa-expeditedssl" }, { "id": "fa fa-battery-4", "text": "fa-battery-4" }, { "id": "fa fa-battery", "text": "fa-battery" }, { "id": "fa fa-battery-full", "text": "fa-battery-full" }, { "id": "fa fa-battery-3", "text": "fa-battery-3" }, { "id": "fa fa-battery-three-quarters", "text": "fa-battery-three-quarters" }, { "id": "fa fa-battery-2", "text": "fa-battery-2" }, { "id": "fa fa-battery-half", "text": "fa-battery-half" }, { "id": "fa fa-battery-1", "text": "fa-battery-1" }, { "id": "fa fa-battery-quarter", "text": "fa-battery-quarter" }, { "id": "fa fa-battery-0", "text": "fa-battery-0" }, { "id": "fa fa-battery-empty", "text": "fa-battery-empty" }, { "id": "fa fa-mouse-pointer", "text": "fa-mouse-pointer" }, { "id": "fa fa-i-cursor", "text": "fa-i-cursor" }, { "id": "fa fa-object-group", "text": "fa-object-group" }, { "id": "fa fa-object-ungroup", "text": "fa-object-ungroup" }, { "id": "fa fa-sticky-note", "text": "fa-sticky-note" }, { "id": "fa fa-sticky-note-o", "text": "fa-sticky-note-o" }, { "id": "fa fa-cc-jcb", "text": "fa-cc-jcb" }, { "id": "fa fa-cc-diners-club", "text": "fa-cc-diners-club" }, { "id": "fa fa-clone", "text": "fa-clone" }, { "id": "fa fa-balance-scale", "text": "fa-balance-scale" }, { "id": "fa fa-hourglass-o", "text": "fa-hourglass-o" }, { "id": "fa fa-hourglass-1", "text": "fa-hourglass-1" }, { "id": "fa fa-hourglass-start", "text": "fa-hourglass-start" }, { "id": "fa fa-hourglass-2", "text": "fa-hourglass-2" }, { "id": "fa fa-hourglass-half", "text": "fa-hourglass-half" }, { "id": "fa fa-hourglass-3", "text": "fa-hourglass-3" }, { "id": "fa fa-hourglass-end", "text": "fa-hourglass-end" }, { "id": "fa fa-hourglass", "text": "fa-hourglass" }, { "id": "fa fa-hand-grab-o", "text": "fa-hand-grab-o" }, { "id": "fa fa-hand-rock-o", "text": "fa-hand-rock-o" }, { "id": "fa fa-hand-stop-o", "text": "fa-hand-stop-o" }, { "id": "fa fa-hand-paper-o", "text": "fa-hand-paper-o" }, { "id": "fa fa-hand-scissors-o", "text": "fa-hand-scissors-o" }, { "id": "fa fa-hand-lizard-o", "text": "fa-hand-lizard-o" }, { "id": "fa fa-hand-spock-o", "text": "fa-hand-spock-o" }, { "id": "fa fa-hand-pointer-o", "text": "fa-hand-pointer-o" }, { "id": "fa fa-hand-peace-o", "text": "fa-hand-peace-o" }, { "id": "fa fa-trademark", "text": "fa-trademark" }, { "id": "fa fa-registered", "text": "fa-registered" }, { "id": "fa fa-creative-commons", "text": "fa-creative-commons" }, { "id": "fa fa-gg", "text": "fa-gg" }, { "id": "fa fa-gg-circle", "text": "fa-gg-circle" }, { "id": "fa fa-tripadvisor", "text": "fa-tripadvisor" }, { "id": "fa fa-odnoklassniki", "text": "fa-odnoklassniki" }, { "id": "fa fa-odnoklassniki-square", "text": "fa-odnoklassniki-square" }, { "id": "fa fa-get-pocket", "text": "fa-get-pocket" }, { "id": "fa fa-wikipedia-w", "text": "fa-wikipedia-w" }, { "id": "fa fa-safari", "text": "fa-safari" }, { "id": "fa fa-chrome", "text": "fa-chrome" }, { "id": "fa fa-firefox", "text": "fa-firefox" }, { "id": "fa fa-opera", "text": "fa-opera" }, { "id": "fa fa-internet-explorer", "text": "fa-internet-explorer" }, { "id": "fa fa-tv", "text": "fa-tv" }, { "id": "fa fa-television", "text": "fa-television" }, { "id": "fa fa-contao", "text": "fa-contao" }, { "id": "fa fa-500px", "text": "fa-500px" }, { "id": "fa fa-amazon", "text": "fa-amazon" }, { "id": "fa fa-calendar-plus-o", "text": "fa-calendar-plus-o" }, { "id": "fa fa-calendar-minus-o", "text": "fa-calendar-minus-o" }, { "id": "fa fa-calendar-times-o", "text": "fa-calendar-times-o" }, { "id": "fa fa-calendar-check-o", "text": "fa-calendar-check-o" }, { "id": "fa fa-industry", "text": "fa-industry" }, { "id": "fa fa-map-pin", "text": "fa-map-pin" }, { "id": "fa fa-map-signs", "text": "fa-map-signs" }, { "id": "fa fa-map-o", "text": "fa-map-o" }, { "id": "fa fa-map", "text": "fa-map" }, { "id": "fa fa-commenting", "text": "fa-commenting" }, { "id": "fa fa-commenting-o", "text": "fa-commenting-o" }, { "id": "fa fa-houzz", "text": "fa-houzz" }, { "id": "fa fa-vimeo", "text": "fa-vimeo" }, { "id": "fa fa-black-tie", "text": "fa-black-tie" }, { "id": "fa fa-fonticons", "text": "fa-fonticons" }, { "id": "fa fa-reddit-alien", "text": "fa-reddit-alien" }, { "id": "fa fa-edge", "text": "fa-edge" }, { "id": "fa fa-credit-card-alt", "text": "fa-credit-card-alt" }, { "id": "fa fa-codiepie", "text": "fa-codiepie" }, { "id": "fa fa-modx", "text": "fa-modx" }, { "id": "fa fa-fort-awesome", "text": "fa-fort-awesome" }, { "id": "fa fa-usb", "text": "fa-usb" }, { "id": "fa fa-product-hunt", "text": "fa-product-hunt" }, { "id": "fa fa-mixcloud", "text": "fa-mixcloud" }, { "id": "fa fa-scribd", "text": "fa-scribd" }, { "id": "fa fa-pause-circle", "text": "fa-pause-circle" }, { "id": "fa fa-pause-circle-o", "text": "fa-pause-circle-o" }, { "id": "fa fa-stop-circle", "text": "fa-stop-circle" }, { "id": "fa fa-stop-circle-o", "text": "fa-stop-circle-o" }, { "id": "fa fa-shopping-bag", "text": "fa-shopping-bag" }, { "id": "fa fa-shopping-basket", "text": "fa-shopping-basket" }, { "id": "fa fa-hashtag", "text": "fa-hashtag" }, { "id": "fa fa-bluetooth", "text": "fa-bluetooth" }, { "id": "fa fa-bluetooth-b", "text": "fa-bluetooth-b" }, { "id": "fa fa-percent", "text": "fa-percent" }, { "id": "fa fa-gitlab", "text": "fa-gitlab" }, { "id": "fa fa-wpbeginner", "text": "fa-wpbeginner" }, { "id": "fa fa-wpforms", "text": "fa-wpforms" }, { "id": "fa fa-envira", "text": "fa-envira" }, { "id": "fa fa-universal-access", "text": "fa-universal-access" }, { "id": "fa fa-wheelchair-alt", "text": "fa-wheelchair-alt" }, { "id": "fa fa-question-circle-o", "text": "fa-question-circle-o" }, { "id": "fa fa-blind", "text": "fa-blind" }, { "id": "fa fa-audio-description", "text": "fa-audio-description" }, { "id": "fa fa-volume-control-phone", "text": "fa-volume-control-phone" }, { "id": "fa fa-braille", "text": "fa-braille" }, { "id": "fa fa-assistive-listening-systems", "text": "fa-assistive-listening-systems" }, { "id": "fa fa-asl-interpreting", "text": "fa-asl-interpreting" }, { "id": "fa fa-american-sign-language-interpreting", "text": "fa-american-sign-language-interpreting" }, { "id": "fa fa-deafness", "text": "fa-deafness" }, { "id": "fa fa-hard-of-hearing", "text": "fa-hard-of-hearing" }, { "id": "fa fa-deaf", "text": "fa-deaf" }, { "id": "fa fa-glide", "text": "fa-glide" }, { "id": "fa fa-glide-g", "text": "fa-glide-g" }, { "id": "fa fa-signing", "text": "fa-signing" }, { "id": "fa fa-sign-language", "text": "fa-sign-language" }, { "id": "fa fa-low-vision", "text": "fa-low-vision" }, { "id": "fa fa-viadeo", "text": "fa-viadeo" }, { "id": "fa fa-viadeo-square", "text": "fa-viadeo-square" }, { "id": "fa fa-snapchat", "text": "fa-snapchat" }, { "id": "fa fa-snapchat-ghost", "text": "fa-snapchat-ghost" }, { "id": "fa fa-snapchat-square", "text": "fa-snapchat-square" }, { "id": "fa fa-pied-piper", "text": "fa-pied-piper" }, { "id": "fa fa-first-order", "text": "fa-first-order" }, { "id": "fa fa-yoast", "text": "fa-yoast" }, { "id": "fa fa-themeisle", "text": "fa-themeisle" }, { "id": "fa fa-google-plus-circle", "text": "fa-google-plus-circle" }, { "id": "fa fa-google-plus-official", "text": "fa-google-plus-official" }, { "id": "fa fa-fa", "text": "fa-fa" }, { "id": "fa fa-font-awesome", "text": "fa-font-awesome" }, { "id": "fa fa-handshake-o", "text": "fa-handshake-o" }, { "id": "fa fa-envelope-open", "text": "fa-envelope-open" }, { "id": "fa fa-envelope-open-o", "text": "fa-envelope-open-o" }, { "id": "fa fa-linode", "text": "fa-linode" }, { "id": "fa fa-address-book", "text": "fa-address-book" }, { "id": "fa fa-address-book-o", "text": "fa-address-book-o" }, { "id": "fa fa-vcard", "text": "fa-vcard" }, { "id": "fa fa-address-card", "text": "fa-address-card" }, { "id": "fa fa-vcard-o", "text": "fa-vcard-o" }, { "id": "fa fa-address-card-o", "text": "fa-address-card-o" }, { "id": "fa fa-user-circle", "text": "fa-user-circle" }, { "id": "fa fa-user-circle-o", "text": "fa-user-circle-o" }, { "id": "fa fa-user-o", "text": "fa-user-o" }, { "id": "fa fa-id-badge", "text": "fa-id-badge" }, { "id": "fa fa-drivers-license", "text": "fa-drivers-license" }, { "id": "fa fa-id-card", "text": "fa-id-card" }, { "id": "fa fa-drivers-license-o", "text": "fa-drivers-license-o" }, { "id": "fa fa-id-card-o", "text": "fa-id-card-o" }, { "id": "fa fa-quora", "text": "fa-quora" }, { "id": "fa fa-free-code-camp", "text": "fa-free-code-camp" }, { "id": "fa fa-telegram", "text": "fa-telegram" }, { "id": "fa fa-thermometer-4", "text": "fa-thermometer-4" }, { "id": "fa fa-thermometer", "text": "fa-thermometer" }, { "id": "fa fa-thermometer-full", "text": "fa-thermometer-full" }, { "id": "fa fa-thermometer-3", "text": "fa-thermometer-3" }, { "id": "fa fa-thermometer-three-quarters", "text": "fa-thermometer-three-quarters" }, { "id": "fa fa-thermometer-2", "text": "fa-thermometer-2" }, { "id": "fa fa-thermometer-half", "text": "fa-thermometer-half" }, { "id": "fa fa-thermometer-1", "text": "fa-thermometer-1" }, { "id": "fa fa-thermometer-quarter", "text": "fa-thermometer-quarter" }, { "id": "fa fa-thermometer-0", "text": "fa-thermometer-0" }, { "id": "fa fa-thermometer-empty", "text": "fa-thermometer-empty" }, { "id": "fa fa-shower", "text": "fa-shower" }, { "id": "fa fa-bathtub", "text": "fa-bathtub" }, { "id": "fa fa-s15", "text": "fa-s15" }, { "id": "fa fa-bath", "text": "fa-bath" }, { "id": "fa fa-podcast", "text": "fa-podcast" }, { "id": "fa fa-window-maximize", "text": "fa-window-maximize" }, { "id": "fa fa-window-minimize", "text": "fa-window-minimize" }, { "id": "fa fa-window-restore", "text": "fa-window-restore" }, { "id": "fa fa-times-rectangle", "text": "fa-times-rectangle" }, { "id": "fa fa-window-close", "text": "fa-window-close" }, { "id": "fa fa-times-rectangle-o", "text": "fa-times-rectangle-o" }, { "id": "fa fa-window-close-o", "text": "fa-window-close-o" }, { "id": "fa fa-bandcamp", "text": "fa-bandcamp" }, { "id": "fa fa-grav", "text": "fa-grav" }, { "id": "fa fa-etsy", "text": "fa-etsy" }, { "id": "fa fa-imdb", "text": "fa-imdb" }, { "id": "fa fa-ravelry", "text": "fa-ravelry" }, { "id": "fa fa-eercast", "text": "fa-eercast" }, { "id": "fa fa-microchip", "text": "fa-microchip" }, { "id": "fa fa-snowflake-o", "text": "fa-snowflake-o" }, { "id": "fa fa-superpowers", "text": "fa-superpowers" }, { "id": "fa fa-wpexplorer", "text": "fa-wpexplorer" }, { "id": "fa fa-meetup", "text": "fa-meetup" }]
    },
    {
        "text": "LineAwesome",
        "children": [{ "id": "la la-500px", "text": "la-500px" }, { "id": "la la-adjust", "text": "la-adjust" }, { "id": "la la-adn", "text": "la-adn" }, { "id": "la la-align-center", "text": "la-align-center" }, { "id": "la la-align-justify", "text": "la-align-justify" }, { "id": "la la-align-left", "text": "la-align-left" }, { "id": "la la-align-right", "text": "la-align-right" }, { "id": "la la-amazon", "text": "la-amazon" }, { "id": "la la-ambulance", "text": "la-ambulance" }, { "id": "la la-anchor", "text": "la-anchor" }, { "id": "la la-android", "text": "la-android" }, { "id": "la la-angellist", "text": "la-angellist" }, { "id": "la la-angle-double-down", "text": "la-angle-double-down" }, { "id": "la la-angle-double-left", "text": "la-angle-double-left" }, { "id": "la la-angle-double-right", "text": "la-angle-double-right" }, { "id": "la la-angle-double-up", "text": "la-angle-double-up" }, { "id": "la la-angle-down", "text": "la-angle-down" }, { "id": "la la-angle-left", "text": "la-angle-left" }, { "id": "la la-angle-right", "text": "la-angle-right" }, { "id": "la la-angle-up", "text": "la-angle-up" }, { "id": "la la-apple", "text": "la-apple" }, { "id": "la la-archive", "text": "la-archive" }, { "id": "la la-area-chart", "text": "la-area-chart" }, { "id": "la la-arrow-circle-down", "text": "la-arrow-circle-down" }, { "id": "la la-arrow-circle-left", "text": "la-arrow-circle-left" }, { "id": "la la-arrow-circle-o-down", "text": "la-arrow-circle-o-down" }, { "id": "la la-arrow-circle-o-left", "text": "la-arrow-circle-o-left" }, { "id": "la la-arrow-circle-o-right", "text": "la-arrow-circle-o-right" }, { "id": "la la-arrow-circle-o-up", "text": "la-arrow-circle-o-up" }, { "id": "la la-arrow-circle-right", "text": "la-arrow-circle-right" }, { "id": "la la-arrow-circle-up", "text": "la-arrow-circle-up" }, { "id": "la la-arrow-down", "text": "la-arrow-down" }, { "id": "la la-arrow-left", "text": "la-arrow-left" }, { "id": "la la-arrow-right", "text": "la-arrow-right" }, { "id": "la la-arrow-up", "text": "la-arrow-up" }, { "id": "la la-arrows", "text": "la-arrows" }, { "id": "la la-arrows-alt", "text": "la-arrows-alt" }, { "id": "la la-arrows-h", "text": "la-arrows-h" }, { "id": "la la-arrows-v", "text": "la-arrows-v" }, { "id": "la la-asterisk", "text": "la-asterisk" }, { "id": "la la-at", "text": "la-at" }, { "id": "la la-automobile", "text": "la-automobile" }, { "id": "la la-backward", "text": "la-backward" }, { "id": "la la-balance-scale", "text": "la-balance-scale" }, { "id": "la la-ban", "text": "la-ban" }, { "id": "la la-bank", "text": "la-bank" }, { "id": "la la-bar-chart", "text": "la-bar-chart" }, { "id": "la la-bar-chart-o", "text": "la-bar-chart-o" }, { "id": "la la-barcode", "text": "la-barcode" }, { "id": "la la-bars", "text": "la-bars" }, { "id": "la la-battery-0", "text": "la-battery-0" }, { "id": "la la-battery-1", "text": "la-battery-1" }, { "id": "la la-battery-2", "text": "la-battery-2" }, { "id": "la la-battery-3", "text": "la-battery-3" }, { "id": "la la-battery-4", "text": "la-battery-4" }, { "id": "la la-battery-empty", "text": "la-battery-empty" }, { "id": "la la-battery-full", "text": "la-battery-full" }, { "id": "la la-battery-half", "text": "la-battery-half" }, { "id": "la la-battery-quarter", "text": "la-battery-quarter" }, { "id": "la la-battery-three-quarters", "text": "la-battery-three-quarters" }, { "id": "la la-bed", "text": "la-bed" }, { "id": "la la-beer", "text": "la-beer" }, { "id": "la la-behance", "text": "la-behance" }, { "id": "la la-behance-square", "text": "la-behance-square" }, { "id": "la la-bell", "text": "la-bell" }, { "id": "la la-bell-o", "text": "la-bell-o" }, { "id": "la la-bell-slash", "text": "la-bell-slash" }, { "id": "la la-bell-slash-o", "text": "la-bell-slash-o" }, { "id": "la la-bicycle", "text": "la-bicycle" }, { "id": "la la-binoculars", "text": "la-binoculars" }, { "id": "la la-birthday-cake", "text": "la-birthday-cake" }, { "id": "la la-bitbucket", "text": "la-bitbucket" }, { "id": "la la-bitbucket-square", "text": "la-bitbucket-square" }, { "id": "la la-bitcoin", "text": "la-bitcoin" }, { "id": "la la-black-tie", "text": "la-black-tie" }, { "id": "la la-bold", "text": "la-bold" }, { "id": "la la-bolt", "text": "la-bolt" }, { "id": "la la-bomb", "text": "la-bomb" }, { "id": "la la-book", "text": "la-book" }, { "id": "la la-bookmark", "text": "la-bookmark" }, { "id": "la la-bookmark-o", "text": "la-bookmark-o" }, { "id": "la la-briefcase", "text": "la-briefcase" }, { "id": "la la-btc", "text": "la-btc" }, { "id": "la la-bug", "text": "la-bug" }, { "id": "la la-building", "text": "la-building" }, { "id": "la la-building-o", "text": "la-building-o" }, { "id": "la la-bullhorn", "text": "la-bullhorn" }, { "id": "la la-bullseye", "text": "la-bullseye" }, { "id": "la la-bus", "text": "la-bus" }, { "id": "la la-buysellads", "text": "la-buysellads" }, { "id": "la la-cab", "text": "la-cab" }, { "id": "la la-calculator", "text": "la-calculator" }, { "id": "la la-calendar", "text": "la-calendar" }, { "id": "la la-calendar-check-o", "text": "la-calendar-check-o" }, { "id": "la la-calendar-minus-o", "text": "la-calendar-minus-o" }, { "id": "la la-calendar-o", "text": "la-calendar-o" }, { "id": "la la-calendar-plus-o", "text": "la-calendar-plus-o" }, { "id": "la la-calendar-times-o", "text": "la-calendar-times-o" }, { "id": "la la-camera", "text": "la-camera" }, { "id": "la la-camera-retro", "text": "la-camera-retro" }, { "id": "la la-car", "text": "la-car" }, { "id": "la la-caret-down", "text": "la-caret-down" }, { "id": "la la-caret-left", "text": "la-caret-left" }, { "id": "la la-caret-right", "text": "la-caret-right" }, { "id": "la la-caret-square-o-down", "text": "la-caret-square-o-down" }, { "id": "la la-toggle-down", "text": "la-toggle-down" }, { "id": "la la-caret-square-o-left", "text": "la-caret-square-o-left" }, { "id": "la la-toggle-left", "text": "la-toggle-left" }, { "id": "la la-caret-square-o-right", "text": "la-caret-square-o-right" }, { "id": "la la-toggle-right", "text": "la-toggle-right" }, { "id": "la la-caret-square-o-up", "text": "la-caret-square-o-up" }, { "id": "la la-toggle-up", "text": "la-toggle-up" }, { "id": "la la-caret-up", "text": "la-caret-up" }, { "id": "la la-cart-arrow-down", "text": "la-cart-arrow-down" }, { "id": "la la-cart-plus", "text": "la-cart-plus" }, { "id": "la la-cc", "text": "la-cc" }, { "id": "la la-cc-amex", "text": "la-cc-amex" }, { "id": "la la-cc-diners-club", "text": "la-cc-diners-club" }, { "id": "la la-cc-discover", "text": "la-cc-discover" }, { "id": "la la-cc-jcb", "text": "la-cc-jcb" }, { "id": "la la-cc-mastercard", "text": "la-cc-mastercard" }, { "id": "la la-cc-paypal", "text": "la-cc-paypal" }, { "id": "la la-cc-stripe", "text": "la-cc-stripe" }, { "id": "la la-cc-visa", "text": "la-cc-visa" }, { "id": "la la-certificate", "text": "la-certificate" }, { "id": "la la-chain", "text": "la-chain" }, { "id": "la la-chain-broken", "text": "la-chain-broken" }, { "id": "la la-check", "text": "la-check" }, { "id": "la la-check-circle", "text": "la-check-circle" }, { "id": "la la-check-circle-o", "text": "la-check-circle-o" }, { "id": "la la-check-square", "text": "la-check-square" }, { "id": "la la-check-square-o", "text": "la-check-square-o" }, { "id": "la la-chevron-circle-down", "text": "la-chevron-circle-down" }, { "id": "la la-chevron-circle-left", "text": "la-chevron-circle-left" }, { "id": "la la-chevron-circle-right", "text": "la-chevron-circle-right" }, { "id": "la la-chevron-circle-up", "text": "la-chevron-circle-up" }, { "id": "la la-chevron-down", "text": "la-chevron-down" }, { "id": "la la-chevron-left", "text": "la-chevron-left" }, { "id": "la la-chevron-right", "text": "la-chevron-right" }, { "id": "la la-chevron-up", "text": "la-chevron-up" }, { "id": "la la-child", "text": "la-child" }, { "id": "la la-chrome", "text": "la-chrome" }, { "id": "la la-circle", "text": "la-circle" }, { "id": "la la-circle-o", "text": "la-circle-o" }, { "id": "la la-circle-o-notch", "text": "la-circle-o-notch" }, { "id": "la la-circle-thin", "text": "la-circle-thin" }, { "id": "la la-clipboard", "text": "la-clipboard" }, { "id": "la la-clock-o", "text": "la-clock-o" }, { "id": "la la-clone", "text": "la-clone" }, { "id": "la la-close", "text": "la-close" }, { "id": "la la-cloud", "text": "la-cloud" }, { "id": "la la-cloud-download", "text": "la-cloud-download" }, { "id": "la la-cloud-upload", "text": "la-cloud-upload" }, { "id": "la la-cny", "text": "la-cny" }, { "id": "la la-code", "text": "la-code" }, { "id": "la la-code-fork", "text": "la-code-fork" }, { "id": "la la-codepen", "text": "la-codepen" }, { "id": "la la-coffee", "text": "la-coffee" }, { "id": "la la-cog", "text": "la-cog" }, { "id": "la la-cogs", "text": "la-cogs" }, { "id": "la la-columns", "text": "la-columns" }, { "id": "la la-comment", "text": "la-comment" }, { "id": "la la-comment-o", "text": "la-comment-o" }, { "id": "la la-commenting", "text": "la-commenting" }, { "id": "la la-commenting-o", "text": "la-commenting-o" }, { "id": "la la-comments", "text": "la-comments" }, { "id": "la la-comments-o", "text": "la-comments-o" }, { "id": "la la-compass", "text": "la-compass" }, { "id": "la la-compress", "text": "la-compress" }, { "id": "la la-connectdevelop", "text": "la-connectdevelop" }, { "id": "la la-contao", "text": "la-contao" }, { "id": "la la-copy", "text": "la-copy" }, { "id": "la la-copyright", "text": "la-copyright" }, { "id": "la la-creative-commons", "text": "la-creative-commons" }, { "id": "la la-credit-card", "text": "la-credit-card" }, { "id": "la la-crop", "text": "la-crop" }, { "id": "la la-crosshairs", "text": "la-crosshairs" }, { "id": "la la-css3", "text": "la-css3" }, { "id": "la la-cube", "text": "la-cube" }, { "id": "la la-cubes", "text": "la-cubes" }, { "id": "la la-cut", "text": "la-cut" }, { "id": "la la-cutlery", "text": "la-cutlery" }, { "id": "la la-dashboard", "text": "la-dashboard" }, { "id": "la la-dashcube", "text": "la-dashcube" }, { "id": "la la-database", "text": "la-database" }, { "id": "la la-dedent", "text": "la-dedent" }, { "id": "la la-delicious", "text": "la-delicious" }, { "id": "la la-desktop", "text": "la-desktop" }, { "id": "la la-deviantart", "text": "la-deviantart" }, { "id": "la la-diamond", "text": "la-diamond" }, { "id": "la la-digg", "text": "la-digg" }, { "id": "la la-dollar", "text": "la-dollar" }, { "id": "la la-dot-circle-o", "text": "la-dot-circle-o" }, { "id": "la la-download", "text": "la-download" }, { "id": "la la-dribbble", "text": "la-dribbble" }, { "id": "la la-dropbox", "text": "la-dropbox" }, { "id": "la la-drupal", "text": "la-drupal" }, { "id": "la la-edit", "text": "la-edit" }, { "id": "la la-eject", "text": "la-eject" }, { "id": "la la-ellipsis-h", "text": "la-ellipsis-h" }, { "id": "la la-ellipsis-v", "text": "la-ellipsis-v" }, { "id": "la la-empire", "text": "la-empire" }, { "id": "la la-ge", "text": "la-ge" }, { "id": "la la-envelope", "text": "la-envelope" }, { "id": "la la-envelope-o", "text": "la-envelope-o" }, { "id": "la la-envelope-square", "text": "la-envelope-square" }, { "id": "la la-eraser", "text": "la-eraser" }, { "id": "la la-eur", "text": "la-eur" }, { "id": "la la-euro", "text": "la-euro" }, { "id": "la la-exchange", "text": "la-exchange" }, { "id": "la la-exclamation", "text": "la-exclamation" }, { "id": "la la-exclamation-circle", "text": "la-exclamation-circle" }, { "id": "la la-exclamation-triangle", "text": "la-exclamation-triangle" }, { "id": "la la-expand", "text": "la-expand" }, { "id": "la la-expeditedssl", "text": "la-expeditedssl" }, { "id": "la la-external-link", "text": "la-external-link" }, { "id": "la la-external-link-square", "text": "la-external-link-square" }, { "id": "la la-eye", "text": "la-eye" }, { "id": "la la-eye-slash", "text": "la-eye-slash" }, { "id": "la la-eyedropper", "text": "la-eyedropper" }, { "id": "la la-facebook", "text": "la-facebook" }, { "id": "la la-facebook-f", "text": "la-facebook-f" }, { "id": "la la-facebook-official", "text": "la-facebook-official" }, { "id": "la la-facebook-square", "text": "la-facebook-square" }, { "id": "la la-fast-backward", "text": "la-fast-backward" }, { "id": "la la-fast-forward", "text": "la-fast-forward" }, { "id": "la la-fax", "text": "la-fax" }, { "id": "la la-female", "text": "la-female" }, { "id": "la la-fighter-jet", "text": "la-fighter-jet" }, { "id": "la la-file", "text": "la-file" }, { "id": "la la-file-archive-o", "text": "la-file-archive-o" }, { "id": "la la-file-audio-o", "text": "la-file-audio-o" }, { "id": "la la-file-code-o", "text": "la-file-code-o" }, { "id": "la la-file-excel-o", "text": "la-file-excel-o" }, { "id": "la la-file-image-o", "text": "la-file-image-o" }, { "id": "la la-file-movie-o", "text": "la-file-movie-o" }, { "id": "la la-file-o", "text": "la-file-o" }, { "id": "la la-file-pdf-o", "text": "la-file-pdf-o" }, { "id": "la la-file-photo-o", "text": "la-file-photo-o" }, { "id": "la la-file-picture-o", "text": "la-file-picture-o" }, { "id": "la la-file-powerpoint-o", "text": "la-file-powerpoint-o" }, { "id": "la la-file-sound-o", "text": "la-file-sound-o" }, { "id": "la la-file-text", "text": "la-file-text" }, { "id": "la la-file-text-o", "text": "la-file-text-o" }, { "id": "la la-file-video-o", "text": "la-file-video-o" }, { "id": "la la-file-word-o", "text": "la-file-word-o" }, { "id": "la la-file-zip-o", "text": "la-file-zip-o" }, { "id": "la la-files-o", "text": "la-files-o" }, { "id": "la la-film", "text": "la-film" }, { "id": "la la-filter", "text": "la-filter" }, { "id": "la la-fire", "text": "la-fire" }, { "id": "la la-fire-extinguisher", "text": "la-fire-extinguisher" }, { "id": "la la-firefox", "text": "la-firefox" }, { "id": "la la-flag", "text": "la-flag" }, { "id": "la la-flag-checkered", "text": "la-flag-checkered" }, { "id": "la la-flag-o", "text": "la-flag-o" }, { "id": "la la-flash", "text": "la-flash" }, { "id": "la la-flask", "text": "la-flask" }, { "id": "la la-flickr", "text": "la-flickr" }, { "id": "la la-floppy-o", "text": "la-floppy-o" }, { "id": "la la-folder", "text": "la-folder" }, { "id": "la la-folder-o", "text": "la-folder-o" }, { "id": "la la-folder-open", "text": "la-folder-open" }, { "id": "la la-folder-open-o", "text": "la-folder-open-o" }, { "id": "la la-font", "text": "la-font" }, { "id": "la la-fonticons", "text": "la-fonticons" }, { "id": "la la-forumbee", "text": "la-forumbee" }, { "id": "la la-forward", "text": "la-forward" }, { "id": "la la-foursquare", "text": "la-foursquare" }, { "id": "la la-frown-o", "text": "la-frown-o" }, { "id": "la la-futbol-o", "text": "la-futbol-o" }, { "id": "la la-soccer-ball-o", "text": "la-soccer-ball-o" }, { "id": "la la-gamepad", "text": "la-gamepad" }, { "id": "la la-gavel", "text": "la-gavel" }, { "id": "la la-gbp", "text": "la-gbp" }, { "id": "la la-gear", "text": "la-gear" }, { "id": "la la-gears", "text": "la-gears" }, { "id": "la la-genderless", "text": "la-genderless" }, { "id": "la la-get-pocket", "text": "la-get-pocket" }, { "id": "la la-gg", "text": "la-gg" }, { "id": "la la-gg-circle", "text": "la-gg-circle" }, { "id": "la la-gift", "text": "la-gift" }, { "id": "la la-git", "text": "la-git" }, { "id": "la la-git-square", "text": "la-git-square" }, { "id": "la la-github", "text": "la-github" }, { "id": "la la-github-alt", "text": "la-github-alt" }, { "id": "la la-github-square", "text": "la-github-square" }, { "id": "la la-glass", "text": "la-glass" }, { "id": "la la-globe", "text": "la-globe" }, { "id": "la la-google", "text": "la-google" }, { "id": "la la-google-plus", "text": "la-google-plus" }, { "id": "la la-google-plus-square", "text": "la-google-plus-square" }, { "id": "la la-google-wallet", "text": "la-google-wallet" }, { "id": "la la-graduation-cap", "text": "la-graduation-cap" }, { "id": "la la-gratipay", "text": "la-gratipay" }, { "id": "la la-gittip", "text": "la-gittip" }, { "id": "la la-group", "text": "la-group" }, { "id": "la la-h-square", "text": "la-h-square" }, { "id": "la la-hacker-news", "text": "la-hacker-news" }, { "id": "la la-hand-grab-o", "text": "la-hand-grab-o" }, { "id": "la la-hand-lizard-o", "text": "la-hand-lizard-o" }, { "id": "la la-hand-o-down", "text": "la-hand-o-down" }, { "id": "la la-hand-o-left", "text": "la-hand-o-left" }, { "id": "la la-hand-o-right", "text": "la-hand-o-right" }, { "id": "la la-hand-o-up", "text": "la-hand-o-up" }, { "id": "la la-hand-paper-o", "text": "la-hand-paper-o" }, { "id": "la la-hand-peace-o", "text": "la-hand-peace-o" }, { "id": "la la-hand-pointer-o", "text": "la-hand-pointer-o" }, { "id": "la la-hand-rock-o", "text": "la-hand-rock-o" }, { "id": "la la-hand-scissors-o", "text": "la-hand-scissors-o" }, { "id": "la la-hand-spock-o", "text": "la-hand-spock-o" }, { "id": "la la-hand-stop-o", "text": "la-hand-stop-o" }, { "id": "la la-hdd-o", "text": "la-hdd-o" }, { "id": "la la-header", "text": "la-header" }, { "id": "la la-headphones", "text": "la-headphones" }, { "id": "la la-heart", "text": "la-heart" }, { "id": "la la-heart-o", "text": "la-heart-o" }, { "id": "la la-heartbeat", "text": "la-heartbeat" }, { "id": "la la-history", "text": "la-history" }, { "id": "la la-home", "text": "la-home" }, { "id": "la la-hospital-o", "text": "la-hospital-o" }, { "id": "la la-hotel", "text": "la-hotel" }, { "id": "la la-hourglass", "text": "la-hourglass" }, { "id": "la la-hourglass-1", "text": "la-hourglass-1" }, { "id": "la la-hourglass-2", "text": "la-hourglass-2" }, { "id": "la la-hourglass-3", "text": "la-hourglass-3" }, { "id": "la la-hourglass-end", "text": "la-hourglass-end" }, { "id": "la la-hourglass-half", "text": "la-hourglass-half" }, { "id": "la la-hourglass-o", "text": "la-hourglass-o" }, { "id": "la la-hourglass-start", "text": "la-hourglass-start" }, { "id": "la la-houzz", "text": "la-houzz" }, { "id": "la la-html5", "text": "la-html5" }, { "id": "la la-i-cursor", "text": "la-i-cursor" }, { "id": "la la-ils", "text": "la-ils" }, { "id": "la la-image", "text": "la-image" }, { "id": "la la-inbox", "text": "la-inbox" }, { "id": "la la-indent", "text": "la-indent" }, { "id": "la la-industry", "text": "la-industry" }, { "id": "la la-info", "text": "la-info" }, { "id": "la la-info-circle", "text": "la-info-circle" }, { "id": "la la-inr", "text": "la-inr" }, { "id": "la la-instagram", "text": "la-instagram" }, { "id": "la la-institution", "text": "la-institution" }, { "id": "la la-internet-explorer", "text": "la-internet-explorer" }, { "id": "la la-ioxhost", "text": "la-ioxhost" }, { "id": "la la-italic", "text": "la-italic" }, { "id": "la la-joomla", "text": "la-joomla" }, { "id": "la la-jpy", "text": "la-jpy" }, { "id": "la la-jsfiddle", "text": "la-jsfiddle" }, { "id": "la la-key", "text": "la-key" }, { "id": "la la-keyboard-o", "text": "la-keyboard-o" }, { "id": "la la-krw", "text": "la-krw" }, { "id": "la la-language", "text": "la-language" }, { "id": "la la-laptop", "text": "la-laptop" }, { "id": "la la-lastfm", "text": "la-lastfm" }, { "id": "la la-lastfm-square", "text": "la-lastfm-square" }, { "id": "la la-leaf", "text": "la-leaf" }, { "id": "la la-leanpub", "text": "la-leanpub" }, { "id": "la la-legal", "text": "la-legal" }, { "id": "la la-lemon-o", "text": "la-lemon-o" }, { "id": "la la-level-down", "text": "la-level-down" }, { "id": "la la-level-up", "text": "la-level-up" }, { "id": "la la-life-bouy", "text": "la-life-bouy" }, { "id": "la la-life-buoy", "text": "la-life-buoy" }, { "id": "la la-life-ring", "text": "la-life-ring" }, { "id": "la la-support", "text": "la-support" }, { "id": "la la-life-saver", "text": "la-life-saver" }, { "id": "la la-lightbulb-o", "text": "la-lightbulb-o" }, { "id": "la la-line-chart", "text": "la-line-chart" }, { "id": "la la-link", "text": "la-link" }, { "id": "la la-linkedin", "text": "la-linkedin" }, { "id": "la la-linkedin-square", "text": "la-linkedin-square" }, { "id": "la la-linux", "text": "la-linux" }, { "id": "la la-list", "text": "la-list" }, { "id": "la la-list-alt", "text": "la-list-alt" }, { "id": "la la-list-ol", "text": "la-list-ol" }, { "id": "la la-list-ul", "text": "la-list-ul" }, { "id": "la la-location-arrow", "text": "la-location-arrow" }, { "id": "la la-lock", "text": "la-lock" }, { "id": "la la-long-arrow-down", "text": "la-long-arrow-down" }, { "id": "la la-long-arrow-left", "text": "la-long-arrow-left" }, { "id": "la la-long-arrow-right", "text": "la-long-arrow-right" }, { "id": "la la-long-arrow-up", "text": "la-long-arrow-up" }, { "id": "la la-magic", "text": "la-magic" }, { "id": "la la-magnet", "text": "la-magnet" }, { "id": "la la-mail-forward", "text": "la-mail-forward" }, { "id": "la la-mail-reply", "text": "la-mail-reply" }, { "id": "la la-mail-reply-all", "text": "la-mail-reply-all" }, { "id": "la la-male", "text": "la-male" }, { "id": "la la-map", "text": "la-map" }, { "id": "la la-map-marker", "text": "la-map-marker" }, { "id": "la la-map-o", "text": "la-map-o" }, { "id": "la la-map-pin", "text": "la-map-pin" }, { "id": "la la-map-signs", "text": "la-map-signs" }, { "id": "la la-mars", "text": "la-mars" }, { "id": "la la-mars-double", "text": "la-mars-double" }, { "id": "la la-mars-stroke", "text": "la-mars-stroke" }, { "id": "la la-mars-stroke-h", "text": "la-mars-stroke-h" }, { "id": "la la-mars-stroke-v", "text": "la-mars-stroke-v" }, { "id": "la la-maxcdn", "text": "la-maxcdn" }, { "id": "la la-meanpath", "text": "la-meanpath" }, { "id": "la la-medium", "text": "la-medium" }, { "id": "la la-medkit", "text": "la-medkit" }, { "id": "la la-meh-o", "text": "la-meh-o" }, { "id": "la la-mercury", "text": "la-mercury" }, { "id": "la la-microphone", "text": "la-microphone" }, { "id": "la la-microphone-slash", "text": "la-microphone-slash" }, { "id": "la la-minus", "text": "la-minus" }, { "id": "la la-minus-circle", "text": "la-minus-circle" }, { "id": "la la-minus-square", "text": "la-minus-square" }, { "id": "la la-minus-square-o", "text": "la-minus-square-o" }, { "id": "la la-mobile", "text": "la-mobile" }, { "id": "la la-mobile-phone", "text": "la-mobile-phone" }, { "id": "la la-money", "text": "la-money" }, { "id": "la la-moon-o", "text": "la-moon-o" }, { "id": "la la-mortar-board", "text": "la-mortar-board" }, { "id": "la la-motorcycle", "text": "la-motorcycle" }, { "id": "la la-mouse-pointer", "text": "la-mouse-pointer" }, { "id": "la la-music", "text": "la-music" }, { "id": "la la-navicon", "text": "la-navicon" }, { "id": "la la-neuter", "text": "la-neuter" }, { "id": "la la-newspaper-o", "text": "la-newspaper-o" }, { "id": "la la-object-group", "text": "la-object-group" }, { "id": "la la-object-ungroup", "text": "la-object-ungroup" }, { "id": "la la-odnoklassniki", "text": "la-odnoklassniki" }, { "id": "la la-odnoklassniki-square", "text": "la-odnoklassniki-square" }, { "id": "la la-opencart", "text": "la-opencart" }, { "id": "la la-openid", "text": "la-openid" }, { "id": "la la-opera", "text": "la-opera" }, { "id": "la la-optin-monster", "text": "la-optin-monster" }, { "id": "la la-outdent", "text": "la-outdent" }, { "id": "la la-pagelines", "text": "la-pagelines" }, { "id": "la la-paint-brush", "text": "la-paint-brush" }, { "id": "la la-paper-plane", "text": "la-paper-plane" }, { "id": "la la-send", "text": "la-send" }, { "id": "la la-paper-plane-o", "text": "la-paper-plane-o" }, { "id": "la la-send-o", "text": "la-send-o" }, { "id": "la la-paperclip", "text": "la-paperclip" }, { "id": "la la-paragraph", "text": "la-paragraph" }, { "id": "la la-paste", "text": "la-paste" }, { "id": "la la-pause", "text": "la-pause" }, { "id": "la la-paw", "text": "la-paw" }, { "id": "la la-paypal", "text": "la-paypal" }, { "id": "la la-pencil", "text": "la-pencil" }, { "id": "la la-pencil-square", "text": "la-pencil-square" }, { "id": "la la-pencil-square-o", "text": "la-pencil-square-o" }, { "id": "la la-phone", "text": "la-phone" }, { "id": "la la-phone-square", "text": "la-phone-square" }, { "id": "la la-photo", "text": "la-photo" }, { "id": "la la-picture-o", "text": "la-picture-o" }, { "id": "la la-pie-chart", "text": "la-pie-chart" }, { "id": "la la-pied-piper", "text": "la-pied-piper" }, { "id": "la la-pied-piper-alt", "text": "la-pied-piper-alt" }, { "id": "la la-pinterest", "text": "la-pinterest" }, { "id": "la la-pinterest-p", "text": "la-pinterest-p" }, { "id": "la la-pinterest-square", "text": "la-pinterest-square" }, { "id": "la la-plane", "text": "la-plane" }, { "id": "la la-play", "text": "la-play" }, { "id": "la la-play-circle", "text": "la-play-circle" }, { "id": "la la-play-circle-o", "text": "la-play-circle-o" }, { "id": "la la-plug", "text": "la-plug" }, { "id": "la la-plus", "text": "la-plus" }, { "id": "la la-plus-circle", "text": "la-plus-circle" }, { "id": "la la-plus-square", "text": "la-plus-square" }, { "id": "la la-plus-square-o", "text": "la-plus-square-o" }, { "id": "la la-power-off", "text": "la-power-off" }, { "id": "la la-print", "text": "la-print" }, { "id": "la la-puzzle-piece", "text": "la-puzzle-piece" }, { "id": "la la-qq", "text": "la-qq" }, { "id": "la la-qrcode", "text": "la-qrcode" }, { "id": "la la-question", "text": "la-question" }, { "id": "la la-question-circle", "text": "la-question-circle" }, { "id": "la la-quote-left", "text": "la-quote-left" }, { "id": "la la-quote-right", "text": "la-quote-right" }, { "id": "la la-ra", "text": "la-ra" }, { "id": "la la-random", "text": "la-random" }, { "id": "la la-rebel", "text": "la-rebel" }, { "id": "la la-recycle", "text": "la-recycle" }, { "id": "la la-reddit", "text": "la-reddit" }, { "id": "la la-reddit-square", "text": "la-reddit-square" }, { "id": "la la-refresh", "text": "la-refresh" }, { "id": "la la-registered", "text": "la-registered" }, { "id": "la la-renren", "text": "la-renren" }, { "id": "la la-reorder", "text": "la-reorder" }, { "id": "la la-repeat", "text": "la-repeat" }, { "id": "la la-reply", "text": "la-reply" }, { "id": "la la-reply-all", "text": "la-reply-all" }, { "id": "la la-retweet", "text": "la-retweet" }, { "id": "la la-rmb", "text": "la-rmb" }, { "id": "la la-road", "text": "la-road" }, { "id": "la la-rocket", "text": "la-rocket" }, { "id": "la la-rotate-left", "text": "la-rotate-left" }, { "id": "la la-rotate-right", "text": "la-rotate-right" }, { "id": "la la-rouble", "text": "la-rouble" }, { "id": "la la-rss", "text": "la-rss" }, { "id": "la la-feed", "text": "la-feed" }, { "id": "la la-rss-square", "text": "la-rss-square" }, { "id": "la la-rub", "text": "la-rub" }, { "id": "la la-ruble", "text": "la-ruble" }, { "id": "la la-rupee", "text": "la-rupee" }, { "id": "la la-safari", "text": "la-safari" }, { "id": "la la-save", "text": "la-save" }, { "id": "la la-scissors", "text": "la-scissors" }, { "id": "la la-search", "text": "la-search" }, { "id": "la la-search-minus", "text": "la-search-minus" }, { "id": "la la-search-plus", "text": "la-search-plus" }, { "id": "la la-sellsy", "text": "la-sellsy" }, { "id": "la la-server", "text": "la-server" }, { "id": "la la-share", "text": "la-share" }, { "id": "la la-share-alt", "text": "la-share-alt" }, { "id": "la la-share-alt-square", "text": "la-share-alt-square" }, { "id": "la la-share-square", "text": "la-share-square" }, { "id": "la la-share-square-o", "text": "la-share-square-o" }, { "id": "la la-shekel", "text": "la-shekel" }, { "id": "la la-sheqel", "text": "la-sheqel" }, { "id": "la la-shield", "text": "la-shield" }, { "id": "la la-ship", "text": "la-ship" }, { "id": "la la-shirtsinbulk", "text": "la-shirtsinbulk" }, { "id": "la la-shopping-cart", "text": "la-shopping-cart" }, { "id": "la la-sign-in", "text": "la-sign-in" }, { "id": "la la-sign-out", "text": "la-sign-out" }, { "id": "la la-signal", "text": "la-signal" }, { "id": "la la-simplybuilt", "text": "la-simplybuilt" }, { "id": "la la-sitemap", "text": "la-sitemap" }, { "id": "la la-skyatlas", "text": "la-skyatlas" }, { "id": "la la-skype", "text": "la-skype" }, { "id": "la la-slack", "text": "la-slack" }, { "id": "la la-sliders", "text": "la-sliders" }, { "id": "la la-slideshare", "text": "la-slideshare" }, { "id": "la la-smile-o", "text": "la-smile-o" }, { "id": "la la-sort", "text": "la-sort" }, { "id": "la la-unsorted", "text": "la-unsorted" }, { "id": "la la-sort-alpha-asc", "text": "la-sort-alpha-asc" }, { "id": "la la-sort-alpha-desc", "text": "la-sort-alpha-desc" }, { "id": "la la-sort-amount-asc", "text": "la-sort-amount-asc" }, { "id": "la la-sort-amount-desc", "text": "la-sort-amount-desc" }, { "id": "la la-sort-asc", "text": "la-sort-asc" }, { "id": "la la-sort-up", "text": "la-sort-up" }, { "id": "la la-sort-desc", "text": "la-sort-desc" }, { "id": "la la-sort-down", "text": "la-sort-down" }, { "id": "la la-sort-numeric-asc", "text": "la-sort-numeric-asc" }, { "id": "la la-sort-numeric-desc", "text": "la-sort-numeric-desc" }, { "id": "la la-soundcloud", "text": "la-soundcloud" }, { "id": "la la-space-shuttle", "text": "la-space-shuttle" }, { "id": "la la-spinner", "text": "la-spinner" }, { "id": "la la-spoon", "text": "la-spoon" }, { "id": "la la-spotify", "text": "la-spotify" }, { "id": "la la-square", "text": "la-square" }, { "id": "la la-square-o", "text": "la-square-o" }, { "id": "la la-stack-exchange", "text": "la-stack-exchange" }, { "id": "la la-stack-overflow", "text": "la-stack-overflow" }, { "id": "la la-star", "text": "la-star" }, { "id": "la la-star-half", "text": "la-star-half" }, { "id": "la la-star-half-o", "text": "la-star-half-o" }, { "id": "la la-star-half-full", "text": "la-star-half-full" }, { "id": "la la-star-half-empty", "text": "la-star-half-empty" }, { "id": "la la-star-o", "text": "la-star-o" }, { "id": "la la-steam", "text": "la-steam" }, { "id": "la la-steam-square", "text": "la-steam-square" }, { "id": "la la-step-backward", "text": "la-step-backward" }, { "id": "la la-step-forward", "text": "la-step-forward" }, { "id": "la la-stethoscope", "text": "la-stethoscope" }, { "id": "la la-sticky-note", "text": "la-sticky-note" }, { "id": "la la-sticky-note-o", "text": "la-sticky-note-o" }, { "id": "la la-stop", "text": "la-stop" }, { "id": "la la-street-view", "text": "la-street-view" }, { "id": "la la-strikethrough", "text": "la-strikethrough" }, { "id": "la la-stumbleupon", "text": "la-stumbleupon" }, { "id": "la la-stumbleupon-circle", "text": "la-stumbleupon-circle" }, { "id": "la la-subscript", "text": "la-subscript" }, { "id": "la la-subway", "text": "la-subway" }, { "id": "la la-suitcase", "text": "la-suitcase" }, { "id": "la la-sun-o", "text": "la-sun-o" }, { "id": "la la-superscript", "text": "la-superscript" }, { "id": "la la-table", "text": "la-table" }, { "id": "la la-tablet", "text": "la-tablet" }, { "id": "la la-tachometer", "text": "la-tachometer" }, { "id": "la la-tag", "text": "la-tag" }, { "id": "la la-tags", "text": "la-tags" }, { "id": "la la-tasks", "text": "la-tasks" }, { "id": "la la-taxi", "text": "la-taxi" }, { "id": "la la-television", "text": "la-television" }, { "id": "la la-tv", "text": "la-tv" }, { "id": "la la-tencent-weibo", "text": "la-tencent-weibo" }, { "id": "la la-terminal", "text": "la-terminal" }, { "id": "la la-text-height", "text": "la-text-height" }, { "id": "la la-text-width", "text": "la-text-width" }, { "id": "la la-th", "text": "la-th" }, { "id": "la la-th-large", "text": "la-th-large" }, { "id": "la la-th-list", "text": "la-th-list" }, { "id": "la la-thumb-tack", "text": "la-thumb-tack" }, { "id": "la la-thumbs-down", "text": "la-thumbs-down" }, { "id": "la la-thumbs-o-down", "text": "la-thumbs-o-down" }, { "id": "la la-thumbs-o-up", "text": "la-thumbs-o-up" }, { "id": "la la-thumbs-up", "text": "la-thumbs-up" }, { "id": "la la-ticket", "text": "la-ticket" }, { "id": "la la-times", "text": "la-times" }, { "id": "la la-remove", "text": "la-remove" }, { "id": "la la-times-circle", "text": "la-times-circle" }, { "id": "la la-times-circle-o", "text": "la-times-circle-o" }, { "id": "la la-tint", "text": "la-tint" }, { "id": "la la-toggle-off", "text": "la-toggle-off" }, { "id": "la la-toggle-on", "text": "la-toggle-on" }, { "id": "la la-trademark", "text": "la-trademark" }, { "id": "la la-train", "text": "la-train" }, { "id": "la la-transgender", "text": "la-transgender" }, { "id": "la la-intersex", "text": "la-intersex" }, { "id": "la la-transgender-alt", "text": "la-transgender-alt" }, { "id": "la la-trash", "text": "la-trash" }, { "id": "la la-trash-o", "text": "la-trash-o" }, { "id": "la la-tree", "text": "la-tree" }, { "id": "la la-trello", "text": "la-trello" }, { "id": "la la-tripadvisor", "text": "la-tripadvisor" }, { "id": "la la-trophy", "text": "la-trophy" }, { "id": "la la-truck", "text": "la-truck" }, { "id": "la la-try", "text": "la-try" }, { "id": "la la-tty", "text": "la-tty" }, { "id": "la la-tumblr", "text": "la-tumblr" }, { "id": "la la-tumblr-square", "text": "la-tumblr-square" }, { "id": "la la-turkish-lira", "text": "la-turkish-lira" }, { "id": "la la-twitch", "text": "la-twitch" }, { "id": "la la-twitter", "text": "la-twitter" }, { "id": "la la-twitter-square", "text": "la-twitter-square" }, { "id": "la la-umbrella", "text": "la-umbrella" }, { "id": "la la-underline", "text": "la-underline" }, { "id": "la la-undo", "text": "la-undo" }, { "id": "la la-university", "text": "la-university" }, { "id": "la la-unlink", "text": "la-unlink" }, { "id": "la la-unlock", "text": "la-unlock" }, { "id": "la la-unlock-alt", "text": "la-unlock-alt" }, { "id": "la la-upload", "text": "la-upload" }, { "id": "la la-usd", "text": "la-usd" }, { "id": "la la-user", "text": "la-user" }, { "id": "la la-user-md", "text": "la-user-md" }, { "id": "la la-user-plus", "text": "la-user-plus" }, { "id": "la la-user-secret", "text": "la-user-secret" }, { "id": "la la-user-times", "text": "la-user-times" }, { "id": "la la-users", "text": "la-users" }, { "id": "la la-venus", "text": "la-venus" }, { "id": "la la-venus-double", "text": "la-venus-double" }, { "id": "la la-venus-mars", "text": "la-venus-mars" }, { "id": "la la-viacoin", "text": "la-viacoin" }, { "id": "la la-video-camera", "text": "la-video-camera" }, { "id": "la la-vimeo", "text": "la-vimeo" }, { "id": "la la-vimeo-square", "text": "la-vimeo-square" }, { "id": "la la-vine", "text": "la-vine" }, { "id": "la la-vk", "text": "la-vk" }, { "id": "la la-volume-down", "text": "la-volume-down" }, { "id": "la la-volume-off", "text": "la-volume-off" }, { "id": "la la-volume-up", "text": "la-volume-up" }, { "id": "la la-warning", "text": "la-warning" }, { "id": "la la-wechat", "text": "la-wechat" }, { "id": "la la-weibo", "text": "la-weibo" }, { "id": "la la-weixin", "text": "la-weixin" }, { "id": "la la-whatsapp", "text": "la-whatsapp" }, { "id": "la la-wheelchair", "text": "la-wheelchair" }, { "id": "la la-wifi", "text": "la-wifi" }, { "id": "la la-wikipedia-w", "text": "la-wikipedia-w" }, { "id": "la la-windows", "text": "la-windows" }, { "id": "la la-won", "text": "la-won" }, { "id": "la la-wordpress", "text": "la-wordpress" }, { "id": "la la-wrench", "text": "la-wrench" }, { "id": "la la-xing", "text": "la-xing" }, { "id": "la la-xing-square", "text": "la-xing-square" }, { "id": "la la-y-combinator", "text": "la-y-combinator" }, { "id": "la la-y-combinator-square", "text": "la-y-combinator-square" }, { "id": "la la-yahoo", "text": "la-yahoo" }, { "id": "la la-yc", "text": "la-yc" }, { "id": "la la-yc-square", "text": "la-yc-square" }, { "id": "la la-yelp", "text": "la-yelp" }, { "id": "la la-yen", "text": "la-yen" }, { "id": "la la-youtube", "text": "la-youtube" }, { "id": "la la-youtube-play", "text": "la-youtube-play" }, { "id": "la la-youtube-square", "text": "la-youtube-square" }]
    },
    {
        "text": "Socicons",
        "children": [{ "id": "socicon-modelmayhem", "text": "socicon-modelmayhem" }, { "id": "socicon-mixcloud", "text": "socicon-mixcloud" }, { "id": "socicon-drupal", "text": "socicon-drupal" }, { "id": "socicon-swarm", "text": "socicon-swarm" }, { "id": "socicon-istock", "text": "socicon-istock" }, { "id": "socicon-yammer", "text": "socicon-yammer" }, { "id": "socicon-ello", "text": "socicon-ello" }, { "id": "socicon-stackoverflow", "text": "socicon-stackoverflow" }, { "id": "socicon-persona", "text": "socicon-persona" }, { "id": "socicon-triplej", "text": "socicon-triplej" }, { "id": "socicon-houzz", "text": "socicon-houzz" }, { "id": "socicon-rss", "text": "socicon-rss" }, { "id": "socicon-paypal", "text": "socicon-paypal" }, { "id": "socicon-odnoklassniki", "text": "socicon-odnoklassniki" }, { "id": "socicon-airbnb", "text": "socicon-airbnb" }, { "id": "socicon-periscope", "text": "socicon-periscope" }, { "id": "socicon-outlook", "text": "socicon-outlook" }, { "id": "socicon-coderwall", "text": "socicon-coderwall" }, { "id": "socicon-tripadvisor", "text": "socicon-tripadvisor" }, { "id": "socicon-appnet", "text": "socicon-appnet" }, { "id": "socicon-goodreads", "text": "socicon-goodreads" }, { "id": "socicon-tripit", "text": "socicon-tripit" }, { "id": "socicon-lanyrd", "text": "socicon-lanyrd" }, { "id": "socicon-slideshare", "text": "socicon-slideshare" }, { "id": "socicon-buffer", "text": "socicon-buffer" }, { "id": "socicon-disqus", "text": "socicon-disqus" }, { "id": "socicon-vkontakte", "text": "socicon-vkontakte" }, { "id": "socicon-whatsapp", "text": "socicon-whatsapp" }, { "id": "socicon-patreon", "text": "socicon-patreon" }, { "id": "socicon-storehouse", "text": "socicon-storehouse" }, { "id": "socicon-pocket", "text": "socicon-pocket" }, { "id": "socicon-mail", "text": "socicon-mail" }, { "id": "socicon-blogger", "text": "socicon-blogger" }, { "id": "socicon-technorati", "text": "socicon-technorati" }, { "id": "socicon-reddit", "text": "socicon-reddit" }, { "id": "socicon-dribbble", "text": "socicon-dribbble" }, { "id": "socicon-stumbleupon", "text": "socicon-stumbleupon" }, { "id": "socicon-digg", "text": "socicon-digg" }, { "id": "socicon-envato", "text": "socicon-envato" }, { "id": "socicon-behance", "text": "socicon-behance" }, { "id": "socicon-delicious", "text": "socicon-delicious" }, { "id": "socicon-deviantart", "text": "socicon-deviantart" }, { "id": "socicon-forrst", "text": "socicon-forrst" }, { "id": "socicon-play", "text": "socicon-play" }, { "id": "socicon-zerply", "text": "socicon-zerply" }, { "id": "socicon-wikipedia", "text": "socicon-wikipedia" }, { "id": "socicon-apple", "text": "socicon-apple" }, { "id": "socicon-flattr", "text": "socicon-flattr" }, { "id": "socicon-github", "text": "socicon-github" }, { "id": "socicon-renren", "text": "socicon-renren" }, { "id": "socicon-friendfeed", "text": "socicon-friendfeed" }, { "id": "socicon-newsvine", "text": "socicon-newsvine" }, { "id": "socicon-identica", "text": "socicon-identica" }, { "id": "socicon-bebo", "text": "socicon-bebo" }, { "id": "socicon-zynga", "text": "socicon-zynga" }, { "id": "socicon-steam", "text": "socicon-steam" }, { "id": "socicon-xbox", "text": "socicon-xbox" }, { "id": "socicon-windows", "text": "socicon-windows" }, { "id": "socicon-qq", "text": "socicon-qq" }, { "id": "socicon-douban", "text": "socicon-douban" }, { "id": "socicon-meetup", "text": "socicon-meetup" }, { "id": "socicon-playstation", "text": "socicon-playstation" }, { "id": "socicon-android", "text": "socicon-android" }, { "id": "socicon-snapchat", "text": "socicon-snapchat" }, { "id": "socicon-twitter", "text": "socicon-twitter" }, { "id": "socicon-facebook", "text": "socicon-facebook" }, { "id": "socicon-googleplus", "text": "socicon-googleplus" }, { "id": "socicon-pinterest", "text": "socicon-pinterest" }, { "id": "socicon-foursquare", "text": "socicon-foursquare" }, { "id": "socicon-yahoo", "text": "socicon-yahoo" }, { "id": "socicon-skype", "text": "socicon-skype" }, { "id": "socicon-yelp", "text": "socicon-yelp" }, { "id": "socicon-feedburner", "text": "socicon-feedburner" }, { "id": "socicon-linkedin", "text": "socicon-linkedin" }, { "id": "socicon-viadeo", "text": "socicon-viadeo" }, { "id": "socicon-xing", "text": "socicon-xing" }, { "id": "socicon-myspace", "text": "socicon-myspace" }, { "id": "socicon-soundcloud", "text": "socicon-soundcloud" }, { "id": "socicon-spotify", "text": "socicon-spotify" }, { "id": "socicon-grooveshark", "text": "socicon-grooveshark" }, { "id": "socicon-lastfm", "text": "socicon-lastfm" }, { "id": "socicon-youtube", "text": "socicon-youtube" }, { "id": "socicon-vimeo", "text": "socicon-vimeo" }, { "id": "socicon-dailymotion", "text": "socicon-dailymotion" }, { "id": "socicon-vine", "text": "socicon-vine" }, { "id": "socicon-flickr", "text": "socicon-flickr" }, { "id": "socicon-500px", "text": "socicon-500px" }, { "id": "socicon-wordpress", "text": "socicon-wordpress" }, { "id": "socicon-tumblr", "text": "socicon-tumblr" }, { "id": "socicon-twitch", "text": "socicon-twitch" }, { "id": "socicon-8tracks", "text": "socicon-8tracks" }, { "id": "socicon-amazon", "text": "socicon-amazon" }, { "id": "socicon-icq", "text": "socicon-icq" }, { "id": "socicon-smugmug", "text": "socicon-smugmug" }, { "id": "socicon-ravelry", "text": "socicon-ravelry" }, { "id": "socicon-weibo", "text": "socicon-weibo" }, { "id": "socicon-baidu", "text": "socicon-baidu" }, { "id": "socicon-angellist", "text": "socicon-angellist" }, { "id": "socicon-ebay", "text": "socicon-ebay" }, { "id": "socicon-imdb", "text": "socicon-imdb" }, { "id": "socicon-stayfriends", "text": "socicon-stayfriends" }, { "id": "socicon-residentadvisor", "text": "socicon-residentadvisor" }, { "id": "socicon-google", "text": "socicon-google" }, { "id": "socicon-yandex", "text": "socicon-yandex" }, { "id": "socicon-sharethis", "text": "socicon-sharethis" }, { "id": "socicon-bandcamp", "text": "socicon-bandcamp" }, { "id": "socicon-itunes", "text": "socicon-itunes" }, { "id": "socicon-deezer", "text": "socicon-deezer" }, { "id": "socicon-telegram", "text": "socicon-telegram" }, { "id": "socicon-openid", "text": "socicon-openid" }, { "id": "socicon-amplement", "text": "socicon-amplement" }, { "id": "socicon-viber", "text": "socicon-viber" }, { "id": "socicon-zomato", "text": "socicon-zomato" }, { "id": "socicon-draugiem", "text": "socicon-draugiem" }, { "id": "socicon-endomodo", "text": "socicon-endomodo" }, { "id": "socicon-filmweb", "text": "socicon-filmweb" }, { "id": "socicon-stackexchange", "text": "socicon-stackexchange" }, { "id": "socicon-wykop", "text": "socicon-wykop" }, { "id": "socicon-teamspeak", "text": "socicon-teamspeak" }, { "id": "socicon-teamviewer", "text": "socicon-teamviewer" }, { "id": "socicon-ventrilo", "text": "socicon-ventrilo" }, { "id": "socicon-younow", "text": "socicon-younow" }, { "id": "socicon-raidcall", "text": "socicon-raidcall" }, { "id": "socicon-mumble", "text": "socicon-mumble" }, { "id": "socicon-medium", "text": "socicon-medium" }, { "id": "socicon-bebee", "text": "socicon-bebee" }, { "id": "socicon-hitbox", "text": "socicon-hitbox" }, { "id": "socicon-reverbnation", "text": "socicon-reverbnation" }, { "id": "socicon-formulr", "text": "socicon-formulr" }, { "id": "socicon-instagram", "text": "socicon-instagram" }, { "id": "socicon-battlenet", "text": "socicon-battlenet" }, { "id": "socicon-chrome", "text": "socicon-chrome" }, { "id": "socicon-discord", "text": "socicon-discord" }, { "id": "socicon-issuu", "text": "socicon-issuu" }, { "id": "socicon-macos", "text": "socicon-macos" }, { "id": "socicon-firefox", "text": "socicon-firefox" }, { "id": "socicon-opera", "text": "socicon-opera" }, { "id": "socicon-keybase", "text": "socicon-keybase" }, { "id": "socicon-alliance", "text": "socicon-alliance" }, { "id": "socicon-livejournal", "text": "socicon-livejournal" }, { "id": "socicon-googlephotos", "text": "socicon-googlephotos" }, { "id": "socicon-horde", "text": "socicon-horde" }, { "id": "socicon-etsy", "text": "socicon-etsy" }, { "id": "socicon-zapier", "text": "socicon-zapier" }, { "id": "socicon-google-scholar", "text": "socicon-google-scholar" }, { "id": "socicon-researchgate", "text": "socicon-researchgate" }, { "id": "socicon-wechat", "text": "socicon-wechat" }, { "id": "socicon-strava", "text": "socicon-strava" }, { "id": "socicon-line", "text": "socicon-line" }, { "id": "socicon-lyft", "text": "socicon-lyft" }, { "id": "socicon-uber", "text": "socicon-uber" }, { "id": "socicon-songkick", "text": "socicon-songkick" }, { "id": "socicon-viewbug", "text": "socicon-viewbug" }, { "id": "socicon-googlegroups", "text": "socicon-googlegroups" }, { "id": "socicon-quora", "text": "socicon-quora" }, { "id": "socicon-diablo", "text": "socicon-diablo" }, { "id": "socicon-blizzard", "text": "socicon-blizzard" }, { "id": "socicon-hearthstone", "text": "socicon-hearthstone" }, { "id": "socicon-heroes", "text": "socicon-heroes" }, { "id": "socicon-overwatch", "text": "socicon-overwatch" }, { "id": "socicon-warcraft", "text": "socicon-warcraft" }, { "id": "socicon-starcraft", "text": "socicon-starcraft" }, { "id": "socicon-beam", "text": "socicon-beam" }, { "id": "socicon-curse", "text": "socicon-curse" }, { "id": "socicon-player", "text": "socicon-player" }, { "id": "socicon-streamjar", "text": "socicon-streamjar" }, { "id": "socicon-nintendo", "text": "socicon-nintendo" }, { "id": "socicon-hellocoton", "text": "socicon-hellocoton" }]
    }
]